.Xil/Vivado-25428-else/hw_ila_data_1/zip_work/waveform.vcd
$date
        2024-May-05 16:40:46
$end
$version
        Vivado v2018.3 (64-bit)
$end
$timescale
        1ps
$end
$scope module dut $end
$var reg 32 " u_m_axi_top/m_axi_awaddr [31:0] $end
$var reg 32 B u_m_axi_top/m_axi_araddr [31:0] $end
$var reg 128 b u_m_axi_top/m_axi_wdata [127:0] $end
$var reg 128 &# u_m_axi_top/m_axi_rdata [127:0] $end
$var reg 1 H$ u_m_axi_top/m_axi_rlast $end
$var reg 1 I$ u_m_axi_top/m_axi_wlast $end
$var reg 1 J$ _TRIGGER $end
$var reg 1 K$ _WINDOW $end
$var reg 1 L$ _GAP $end
$upscope $end
$enddefinitions $end
#0
$dumpvars
b10000000000100000000000000 "
b0 B
b1011111110000000101111110000000010111110100000001011111000000000101111011000000010111101000000001011110010000000101111000 b
b0 &#
0H$
0I$
0J$
1K$
0L$
$end
#1
b1100001110000000110000110000000011000010100000001100001000000000110000011000000011000001000000001100000010000000110000000 b
#2
b1100011110000000110001110000000011000110100000001100011000000000110001011000000011000101000000001100010010000000110001000 b
#3
b1100101110000000110010110000000011001010100000001100101000000000110010011000000011001001000000001100100010000000110010000 b
#4
b1100111110000000110011110000000011001110100000001100111000000000110011011000000011001101000000001100110010000000110011000 b
#5
b1101001110000000110100110000000011010010100000001101001000000000110100011000000011010001000000001101000010000000110100000 b
#6
b1101011110000000110101110000000011010110100000001101011000000000110101011000000011010101000000001101010010000000110101000 b
#7
b1101101110000000110110110000000011011010100000001101101000000000110110011000000011011001000000001101100010000000110110000 b
#8
b1101111110000000110111110000000011011110100000001101111000000000110111011000000011011101000000001101110010000000110111000 b
#9
b1110001110000000111000110000000011100010100000001110001000000000111000011000000011100001000000001110000010000000111000000 b
#10
b1110011110000000111001110000000011100110100000001110011000000000111001011000000011100101000000001110010010000000111001000 b
#11
b1110101110000000111010110000000011101010100000001110101000000000111010011000000011101001000000001110100010000000111010000 b
#12
b1110111110000000111011110000000011101110100000001110111000000000111011011000000011101101000000001110110010000000111011000 b
#13
b1111001110000000111100110000000011110010100000001111001000000000111100011000000011110001000000001111000010000000111100000 b
#14
b1111011110000000111101110000000011110110100000001111011000000000111101011000000011110101000000001111010010000000111101000 b
#15
b1111101110000000111110110000000011111010100000001111101000000000111110011000000011111001000000001111100010000000111110000 b
#16
b1111111110000000111111110000000011111110100000001111111000000000111111011000000011111101000000001111110010000000111111000 b
#17
b10000001110000001000000110000000100000010100000010000001000000001000000011000000100000001000000010000000010000001000000000 b
#18
b10000011110000001000001110000000100000110100000010000011000000001000001011000000100000101000000010000010010000001000001000 b
#19
b10000101110000001000010110000000100001010100000010000101000000001000010011000000100001001000000010000100010000001000010000 b
#20
b10000111110000001000011110000000100001110100000010000111000000001000011011000000100001101000000010000110010000001000011000 b
#21
b10001001110000001000100110000000100010010100000010001001000000001000100011000000100010001000000010001000010000001000100000 b
#22
b10001011110000001000101110000000100010110100000010001011000000001000101011000000100010101000000010001010010000001000101000 b
#23
b10001101110000001000110110000000100011010100000010001101000000001000110011000000100011001000000010001100010000001000110000 b
#24
b10001111110000001000111110000000100011110100000010001111000000001000111011000000100011101000000010001110010000001000111000 b
#25
b10010001110000001001000110000000100100010100000010010001000000001001000011000000100100001000000010010000010000001001000000 b
#26
b10010011110000001001001110000000100100110100000010010011000000001001001011000000100100101000000010010010010000001001001000 b
#27
b10010101110000001001010110000000100101010100000010010101000000001001010011000000100101001000000010010100010000001001010000 b
#28
b10010111110000001001011110000000100101110100000010010111000000001001011011000000100101101000000010010110010000001001011000 b
#29
b10011001110000001001100110000000100110010100000010011001000000001001100011000000100110001000000010011000010000001001100000 b
#30
b10011011110000001001101110000000100110110100000010011011000000001001101011000000100110101000000010011010010000001001101000 b
#31
b10011101110000001001110110000000100111010100000010011101000000001001110011000000100111001000000010011100010000001001110000 b
#32
b10011111110000001001111110000000100111110100000010011111000000001001111011000000100111101000000010011110010000001001111000 b
#33
b10100001110000001010000110000000101000010100000010100001000000001010000011000000101000001000000010100000010000001010000000 b
#34
b10100011110000001010001110000000101000110100000010100011000000001010001011000000101000101000000010100010010000001010001000 b
#35
b10100101110000001010010110000000101001010100000010100101000000001010010011000000101001001000000010100100010000001010010000 b
#36
b10100111110000001010011110000000101001110100000010100111000000001010011011000000101001101000000010100110010000001010011000 b
#37
b10101001110000001010100110000000101010010100000010101001000000001010100011000000101010001000000010101000010000001010100000 b
#38
b10101011110000001010101110000000101010110100000010101011000000001010101011000000101010101000000010101010010000001010101000 b
#39
b10101101110000001010110110000000101011010100000010101101000000001010110011000000101011001000000010101100010000001010110000 b
#40
b10101111110000001010111110000000101011110100000010101111000000001010111011000000101011101000000010101110010000001010111000 b
#41
b10110001110000001011000110000000101100010100000010110001000000001011000011000000101100001000000010110000010000001011000000 b
#42
b10110011110000001011001110000000101100110100000010110011000000001011001011000000101100101000000010110010010000001011001000 b
#43
b10110101110000001011010110000000101101010100000010110101000000001011010011000000101101001000000010110100010000001011010000 b
#44
b10110111110000001011011110000000101101110100000010110111000000001011011011000000101101101000000010110110010000001011011000 b
#45
b10111001110000001011100110000000101110010100000010111001000000001011100011000000101110001000000010111000010000001011100000 b
#46
b10111011110000001011101110000000101110110100000010111011000000001011101011000000101110101000000010111010010000001011101000 b
#47
b10111101110000001011110110000000101111010100000010111101000000001011110011000000101111001000000010111100010000001011110000 b
#48
b10111111110000001011111110000000101111110100000010111111000000001011111011000000101111101000000010111110010000001011111000 b
#49
b11000001110000001100000110000000110000010100000011000001000000001100000011000000110000001000000011000000010000001100000000 b
#50
b11000011110000001100001110000000110000110100000011000011000000001100001011000000110000101000000011000010010000001100001000 b
#51
b11000101110000001100010110000000110001010100000011000101000000001100010011000000110001001000000011000100010000001100010000 b
#52
b11000111110000001100011110000000110001110100000011000111000000001100011011000000110001101000000011000110010000001100011000 b
#53
b11001001110000001100100110000000110010010100000011001001000000001100100011000000110010001000000011001000010000001100100000 b
#54
b11001011110000001100101110000000110010110100000011001011000000001100101011000000110010101000000011001010010000001100101000 b
#55
b11001101110000001100110110000000110011010100000011001101000000001100110011000000110011001000000011001100010000001100110000 b
#56
b11001111110000001100111110000000110011110100000011001111000000001100111011000000110011101000000011001110010000001100111000 b
#57
b11010001110000001101000110000000110100010100000011010001000000001101000011000000110100001000000011010000010000001101000000 b
#58
b11010011110000001101001110000000110100110100000011010011000000001101001011000000110100101000000011010010010000001101001000 b
#59
b11010101110000001101010110000000110101010100000011010101000000001101010011000000110101001000000011010100010000001101010000 b
#60
b11010111110000001101011110000000110101110100000011010111000000001101011011000000110101101000000011010110010000001101011000 b
#61
b11011001110000001101100110000000110110010100000011011001000000001101100011000000110110001000000011011000010000001101100000 b
#62
b11011011110000001101101110000000110110110100000011011011000000001101101011000000110110101000000011011010010000001101101000 b
#63
b11011101110000001101110110000000110111010100000011011101000000001101110011000000110111001000000011011100010000001101110000 b
#64
b11011111110000001101111110000000110111110100000011011111000000001101111011000000110111101000000011011110010000001101111000 b
#65
b11100001110000001110000110000000111000010100000011100001000000001110000011000000111000001000000011100000010000001110000000 b
#66
b11100011110000001110001110000000111000110100000011100011000000001110001011000000111000101000000011100010010000001110001000 b
#67
b11100101110000001110010110000000111001010100000011100101000000001110010011000000111001001000000011100100010000001110010000 b
#68
b11100111110000001110011110000000111001110100000011100111000000001110011011000000111001101000000011100110010000001110011000 b
#69
b11101001110000001110100110000000111010010100000011101001000000001110100011000000111010001000000011101000010000001110100000 b
#70
b11101011110000001110101110000000111010110100000011101011000000001110101011000000111010101000000011101010010000001110101000 b
#71
b11101101110000001110110110000000111011010100000011101101000000001110110011000000111011001000000011101100010000001110110000 b
#72
b11101111110000001110111110000000111011110100000011101111000000001110111011000000111011101000000011101110010000001110111000 b
#73
b11110001110000001111000110000000111100010100000011110001000000001111000011000000111100001000000011110000010000001111000000 b
#74
b11110011110000001111001110000000111100110100000011110011000000001111001011000000111100101000000011110010010000001111001000 b
#75
b11110101110000001111010110000000111101010100000011110101000000001111010011000000111101001000000011110100010000001111010000 b
#76
b11110111110000001111011110000000111101110100000011110111000000001111011011000000111101101000000011110110010000001111011000 b
#77
b11111001110000001111100110000000111110010100000011111001000000001111100011000000111110001000000011111000010000001111100000 b
#78
b11111011110000001111101110000000111110110100000011111011000000001111101011000000111110101000000011111010010000001111101000 b
#79
b11111101110000001111110110000000111111010100000011111101000000001111110011000000111111001000000011111100010000001111110000 b
#80
b11111111110000001111111110000000111111110100000011111111000000001111111011000000111111101000000011111110010000001111111000 b
1I$
1J$
#81
0I$
#983
b10000000000100000000000000 B
#1000
b1110000000000000100000000000000010100000000000000100000000000000011000000000000000000000000000000010000000011111111 &#
#1002
b11110000000000001100000000000000110100000000000010100000000000001011000000000000100000000000000010010000000000000110 &#
#1004
b101110000000000010100000000000001010100000000000100100000000000010011000000000001000000000000000100010000000000001110 &#
#1006
b111110000000000011100000000000001110100000000000110100000000000011011000000000001100000000000000110010000000000010110 &#
#1008
b1001110000000000100100000000000010010100000000001000100000000000100011000000000010000000000000001000010000000000011110 &#
#1010
b1011110000000000101100000000000010110100000000001010100000000000101011000000000010100000000000001010010000000000100110 &#
#1012
b1101110000000000110100000000000011010100000000001100100000000000110011000000000011000000000000001100010000000000101110 &#
#1014
b1111110000000000111100000000000011110100000000001110100000000000111011000000000011100000000000001110010000000000110110 &#
#1016
b10001110000000001000100000000000100010100000000010000100000000001000011000000000100000000000000010000010000000000111110 &#
#1018
b10011110000000001001100000000000100110100000000010010100000000001001011000000000100100000000000010010010000000001000110 &#
#1020
b10101110000000001010100000000000101010100000000010100100000000001010011000000000101000000000000010100010000000001001110 &#
#1022
b10111110000000001011100000000000101110100000000010110100000000001011011000000000101100000000000010110010000000001010110 &#
#1024
b11001110000000001100100000000000110010100000000011000100000000001100011000000000110000000000000011000010000000001011110 &#
#1026
b11011110000000001101100000000000110110100000000011010100000000001101011000000000110100000000000011010010000000001100110 &#
#1028
b11101110000000001110100000000000111010100000000011100100000000001110011000000000111000000000000011100010000000001101110 &#
#1030
b11111110000000001111100000000000111110100000000011110100000000001111011000000000111100000000000011110010000000001110110 &#
#1032
b100001110000000010000100000000001000010100000000100000100000000010000011000000001000000000000000100000010000000001111110 &#
#1034
b100011110000000010001100000000001000110100000000100010100000000010001011000000001000100000000000100010010000000010000110 &#
#1036
b100101110000000010010100000000001001010100000000100100100000000010010011000000001001000000000000100100010000000010001110 &#
#1038
b100111110000000010011100000000001001110100000000100110100000000010011011000000001001100000000000100110010000000010010110 &#
#1040
b101001110000000010100100000000001010010100000000101000100000000010100011000000001010000000000000101000010000000010011110 &#
#1042
b101011110000000010101100000000001010110100000000101010100000000010101011000000001010100000000000101010010000000010100110 &#
#1044
b101101110000000010110100000000001011010100000000101100100000000010110011000000001011000000000000101100010000000010101110 &#
#1046
b101111110000000010111100000000001011110100000000101110100000000010111011000000001011100000000000101110010000000010110110 &#
#1048
b110001110000000011000100000000001100010100000000110000100000000011000011000000001100000000000000110000010000000010111110 &#
#1050
b110011110000000011001100000000001100110100000000110010100000000011001011000000001100100000000000110010010000000011000110 &#
#1052
b110101110000000011010100000000001101010100000000110100100000000011010011000000001101000000000000110100010000000011001110 &#
#1054
b110111110000000011011100000000001101110100000000110110100000000011011011000000001101100000000000110110010000000011010110 &#
#1056
b111001110000000011100100000000001110010100000000111000100000000011100011000000001110000000000000111000010000000011011110 &#
#1058
b111011110000000011101100000000001110110100000000111010100000000011101011000000001110100000000000111010010000000011100110 &#
#1060
b111101110000000011110100000000001111010100000000111100100000000011110011000000001111000000000000111100010000000011101110 &#
#1062
b111111110000000011111100000000001111110100000000111110100000000011111011000000001111100000000000111110010000000011110110 &#
#1064
b1000001110000000100000100000000010000010100000001000000100000000100000011000000010000000000000001000000010000000011111110 &#
#1066
b1000011110000000100001100000000010000110100000001000010100000000100001011000000010000100000000001000010010000000100000110 &#
#1068
b1000101110000000100010100000000010001010100000001000100100000000100010011000000010001000000000001000100010000000100001110 &#
#1070
b1000111110000000100011100000000010001110100000001000110100000000100011011000000010001100000000001000110010000000100010110 &#
#1072
b1001001110000000100100100000000010010010100000001001000100000000100100011000000010010000000000001001000010000000100011110 &#
#1074
b1001011110000000100101100000000010010110100000001001010100000000100101011000000010010100000000001001010010000000100100110 &#
#1076
b1001101110000000100110100000000010011010100000001001100100000000100110011000000010011000000000001001100010000000100101110 &#
#1078
b1001111110000000100111100000000010011110100000001001110100000000100111011000000010011100000000001001110010000000100110110 &#
#1080
b1010001110000000101000100000000010100010100000001010000100000000101000011000000010100000000000001010000010000000100111110 &#
#1082
b1010011110000000101001100000000010100110100000001010010100000000101001011000000010100100000000001010010010000000101000110 &#
#1084
b1010101110000000101010100000000010101010100000001010100100000000101010011000000010101000000000001010100010000000101001110 &#
#1086
b1010111110000000101011100000000010101110100000001010110100000000101011011000000010101100000000001010110010000000101010110 &#
#1088
b1011001110000000101100100000000010110010100000001011000100000000101100011000000010110000000000001011000010000000101011110 &#
#1090
b1011011110000000101101100000000010110110100000001011010100000000101101011000000010110100000000001011010010000000101100110 &#
#1092
b1011101110000000101110100000000010111010100000001011100100000000101110011000000010111000000000001011100010000000101101110 &#
#1094
b1011111110000000101111100000000010111110100000001011110100000000101111011000000010111100000000001011110010000000101110110 &#
#1096
b1100001110000000110000100000000011000010100000001100000100000000110000011000000011000000000000001100000010000000101111110 &#
#1098
b1100011110000000110001100000000011000110100000001100010100000000110001011000000011000100000000001100010010000000110000110 &#
#1100
b1100101110000000110010100000000011001010100000001100100100000000110010011000000011001000000000001100100010000000110001110 &#
#1102
b1100111110000000110011100000000011001110100000001100110100000000110011011000000011001100000000001100110010000000110010110 &#
#1104
b1101001110000000110100100000000011010010100000001101000100000000110100011000000011010000000000001101000010000000110011110 &#
#1106
b1101011110000000110101100000000011010110100000001101010100000000110101011000000011010100000000001101010010000000110100110 &#
#1108
b1101101110000000110110100000000011011010100000001101100100000000110110011000000011011000000000001101100010000000110101110 &#
#1110
b1101111110000000110111100000000011011110100000001101110100000000110111011000000011011100000000001101110010000000110110110 &#
#1112
b1110001110000000111000100000000011100010100000001110000100000000111000011000000011100000000000001110000010000000110111110 &#
#1114
b1110011110000000111001100000000011100110100000001110010100000000111001011000000011100100000000001110010010000000111000110 &#
#1116
b1110101110000000111010100000000011101010100000001110100100000000111010011000000011101000000000001110100010000000111001110 &#
#1118
b1110111110000000111011100000000011101110100000001110110100000000111011011000000011101100000000001110110010000000111010110 &#
#1120
b1111001110000000111100100000000011110010100000001111000100000000111100011000000011110000000000001111000010000000111011110 &#
#1122
b1111011110000000111101100000000011110110100000001111010100000000111101011000000011110100000000001111010010000000111100110 &#
#1124
b1111101110000000111110100000000011111010100000001111100100000000111110011000000011111000000000001111100010000000111101110 &#
#1126
b10111111110000000111111100000000011111110100000001111110100000000111111011000000011111100000000001111110010000000111110110 &#
#1128
b10000001110000001000000100000000100000010100000010000000100000001000000011000000100000000000000010000000010000000111111110 &#
#1130
b10000011110000001000001100000000100000110100000010000010100000001000001011000000100000100000000010000010010000001000000110 &#
#1132
b10000101110000001000010100000000100001010100000010000100100000001000010011000000100001000000000010000100010000001000001110 &#
#1134
b10000111110000001000011100000000100001110100000010000110100000001000011011000000100001100000000010000110010000001000010110 &#
#1136
b10001001110000001000100100000000100010010100000010001000100000001000100011000000100010000000000010001000010000001000011110 &#
#1138
b10001011110000001000101100000000100010110100000010001010100000001000101011000000100010100000000010001010010000001000100110 &#
#1140
b10001101110000001000110100000000100011010100000010001100100000001000110011000000100011000000000010001100010000001000101110 &#
#1142
b10001111110000001000111100000000100011110100000010001110100000001000111011000000100011100000000010001110010000001000110110 &#
#1144
b10010001110000001001000100000000100100010100000010010000100000001001000011000000100100000000000010010000010000001000111110 &#
#1146
b10010011110000001001001100000000100100110100000010010010100000001001001011000000100100100000000010010010010000001001000110 &#
#1148
b10010101110000001001010100000000100101010100000010010100100000001001010011000000100101000000000010010100010000001001001110 &#
#1150
b10010111110000001001011100000000100101110100000010010110100000001001011011000000100101100000000010010110010000001001010110 &#
#1152
b10011001110000001001100100000000100110010100000010011000100000001001100011000000100110000000000010011000010000001001011110 &#
#1154
b10011011110000001001101100000000100110110100000010011010100000001001101011000000100110100000000010011010010000001001100110 &#
#1156
b10011101110000001001110100000000100111010100000010011100100000001001110011000000100111000000000010011100010000001001101110 &#
#1158
b10011111110000001001111100000000100111110100000010011110100000001001111011000000100111100000000010011110010000001001110110 &#
#1184
b10100001110000001010000100000000101000010100000010100000100000001010000011000000101000000000000010100000010000001001111110 &#
#1186
b10100011110000001010001100000000101000110100000010100010100000001010001011000000101000100000000010100010010000001010000110 &#
#1188
b10100101110000001010010100000000101001010100000010100100100000001010010011000000101001000000000010100100010000001010001110 &#
#1190
b10100111110000001010011100000000101001110100000010100110100000001010011011000000101001100000000010100110010000001010010110 &#
#1192
b10101001110000001010100100000000101010010100000010101000100000001010100011000000101010000000000010101000010000001010011110 &#
#1194
b10101011110000001010101100000000101010110100000010101010100000001010101011000000101010100000000010101010010000001010100110 &#
#1196
b10101101110000001010110100000000101011010100000010101100100000001010110011000000101011000000000010101100010000001010101110 &#
#1198
b10101111110000001010111100000000101011110100000010101110100000001010111011000000101011100000000010101110010000001010110110 &#
#1200
b10110001110000001011000100000000101100010100000010110000100000001011000011000000101100000000000010110000010000001010111110 &#
#1202
b10110011110000001011001100000000101100110100000010110010100000001011001011000000101100100000000010110010010000001011000110 &#
#1204
b10110101110000001011010100000000101101010100000010110100100000001011010011000000101101000000000010110100010000001011001110 &#
#1206
b10110111110000001011011100000000101101110100000010110110100000001011011011000000101101100000000010110110010000001011010110 &#
#1208
b10111001110000001011100100000000101110010100000010111000100000001011100011000000101110000000000010111000010000001011011110 &#
#1210
b10111011110000001011101100000000101110110100000010111010100000001011101011000000101110100000000010111010010000001011100110 &#
#1212
b10111101110000001011110100000000101111010100000010111100100000001011110011000000101111000000000010111100010000001011101110 &#
#1214
b11111111110000001011111100000000101111110100000010111110100000001011111011000000101111100000000010111110010000001011110110 &#
#1216
b11000001110000001100000100000000110000010100000011000000100000001100000011000000110000000000000011000000010000001011111110 &#
#1218
b11000011110000001100001100000000110000110100000011000010100000001100001011000000110000100000000011000010010000001100000110 &#
#1220
b11000101110000001100010100000000110001010100000011000100100000001100010011000000110001000000000011000100010000001100001110 &#
#1222
b11000111110000001100011100000000110001110100000011000110100000001100011011000000110001100000000011000110010000001100010110 &#
#1224
b11001001110000001100100100000000110010010100000011001000100000001100100011000000110010000000000011001000010000001100011110 &#
#1226
b11001011110000001100101100000000110010110100000011001010100000001100101011000000110010100000000011001010010000001100100110 &#
#1228
b11001101110000001100110100000000110011010100000011001100100000001100110011000000110011000000000011001100010000001100101110 &#
#1230
b11001111110000001100111100000000110011110100000011001110100000001100111011000000110011100000000011001110010000001100110110 &#
#1232
b11010001110000001101000100000000110100010100000011010000100000001101000011000000110100000000000011010000010000001100111110 &#
#1234
b11010011110000001101001100000000110100110100000011010010100000001101001011000000110100100000000011010010010000001101000110 &#
#1236
b11010101110000001101010100000000110101010100000011010100100000001101010011000000110101000000000011010100010000001101001110 &#
#1238
b11010111110000001101011100000000110101110100000011010110100000001101011011000000110101100000000011010110010000001101010110 &#
#1240
b11011001110000001101100100000000110110010100000011011000100000001101100011000000110110000000000011011000010000001101011110 &#
#1242
b11011011110000001101101100000000110110110100000011011010100000001101101011000000110110100000000011011010010000001101100110 &#
#1244
b11011101110000001101110100000000110111010100000011011100100000001101110011000000110111000000000011011100010000001101101110 &#
#1246
b11011111110000001101111100000000110111110100000011011110100000001101111011000000110111100000000011011110010000001101110110 &#
#1248
b11100001110000001110000100000000111000010100000011100000100000001110000011000000111000000000000011100000010000001101111110 &#
#1250
b11100011110000001110001100000000111000110100000011100010100000001110001011000000111000100000000011100010010000001110000110 &#
#1252
b11100101110000001110010100000000111001010100000011100100100000001110010011000000111001000000000011100100010000001110001110 &#
#1254
b11100111110000001110011100000000111001110100000011100110100000001110011011000000111001100000000011100110010000001110010110 &#
#1256
b11101001110000001110100100000000111010010100000011101000100000001110100011000000111010000000000011101000010000001110011110 &#
#1258
b11101011110000001110101100000000111010110100000011101010100000001110101011000000111010100000000011101010010000001110100110 &#
#1260
b11101101110000001110110100000000111011010100000011101100100000001110110011000000111011000000000011101100010000001110101110 &#
#1262
b11101111110000001110111100000000111011110100000011101110100000001110111011000000111011100000000011101110010000001110110110 &#
#1264
b11110001110000001111000100000000111100010100000011110000100000001111000011000000111100000000000011110000010000001110111110 &#
#1266
b11110011110000001111001100000000111100110100000011110010100000001111001011000000111100100000000011110010010000001111000110 &#
#1268
b11110101110000001111010100000000111101010100000011110100100000001111010011000000111101000000000011110100010000001111001110 &#
#1270
b11110111110000001111011100000000111101110100000011110110100000001111011011000000111101100000000011110110010000001111010110 &#
#1272
b11111001110000001111100100000000111110010100000011111000100000001111100011000000111110000000000011111000010000001111011110 &#
#1274
b11111011110000001111101100000000111110110100000011111010100000001111101011000000111110100000000011111010010000001111100110 &#
#1276
b11111101110000001111110100000000111111010100000011111100100000001111110011000000111111000000000011111100010000001111101110 &#
#1278
b111111110000001111111100000000111111110100000011111110100000001111111011000000111111100000000011111110010000001111110110 &#
1H$
#1279
0H$
