.Xil/Vivado-3976-else/hw_ila_data_1/zip_work/waveform.vcd
$date
        2024-May-05 20:41:58
$end
$version
        Vivado v2018.3 (64-bit)
$end
$timescale
        1ps
$end
$scope module dut $end
$var reg 128 " u_m_axi_top/m_axi_rdata [127:0] $end
$var reg 128 D" u_m_axi_top/m_axi_wdata [127:0] $end
$var reg 1 f# m_axi_rlast $end
$var reg 1 g# m_axi_wlast $end
$var reg 1 h# _TRIGGER $end
$var reg 1 i# _WINDOW $end
$var reg 1 j# _GAP $end
$upscope $end
$enddefinitions $end
#0
$dumpvars
b0 "
b110111110000000011011110000000001101110100000000110111000000000011011011000000001101101000000000110110010000000011011000 D"
0f#
0g#
0h#
1i#
0j#
$end
#1
b111001110000000011100110000000001110010100000000111001000000000011100011000000001110001000000000111000010000000011100000 D"
#2
b111011110000000011101110000000001110110100000000111011000000000011101011000000001110101000000000111010010000000011101000 D"
#3
b111101110000000011110110000000001111010100000000111101000000000011110011000000001111001000000000111100010000000011110000 D"
#4
b111111110000000011111110000000001111110100000000111111000000000011111011000000001111101000000000111110010000000011111000 D"
#5
b1000001110000000100000110000000010000010100000001000001000000000100000011000000010000001000000001000000010000000100000000 D"
#6
b1000011110000000100001110000000010000110100000001000011000000000100001011000000010000101000000001000010010000000100001000 D"
#7
b1000101110000000100010110000000010001010100000001000101000000000100010011000000010001001000000001000100010000000100010000 D"
#8
b1000111110000000100011110000000010001110100000001000111000000000100011011000000010001101000000001000110010000000100011000 D"
#9
b1001001110000000100100110000000010010010100000001001001000000000100100011000000010010001000000001001000010000000100100000 D"
#10
b1001011110000000100101110000000010010110100000001001011000000000100101011000000010010101000000001001010010000000100101000 D"
#11
b1001101110000000100110110000000010011010100000001001101000000000100110011000000010011001000000001001100010000000100110000 D"
#12
b1001111110000000100111110000000010011110100000001001111000000000100111011000000010011101000000001001110010000000100111000 D"
#13
b1010001110000000101000110000000010100010100000001010001000000000101000011000000010100001000000001010000010000000101000000 D"
#14
b1010011110000000101001110000000010100110100000001010011000000000101001011000000010100101000000001010010010000000101001000 D"
#15
b1010101110000000101010110000000010101010100000001010101000000000101010011000000010101001000000001010100010000000101010000 D"
#16
b1010111110000000101011110000000010101110100000001010111000000000101011011000000010101101000000001010110010000000101011000 D"
#17
b1011001110000000101100110000000010110010100000001011001000000000101100011000000010110001000000001011000010000000101100000 D"
#18
b1011011110000000101101110000000010110110100000001011011000000000101101011000000010110101000000001011010010000000101101000 D"
#19
b1011101110000000101110110000000010111010100000001011101000000000101110011000000010111001000000001011100010000000101110000 D"
#20
b1011111110000000101111110000000010111110100000001011111000000000101111011000000010111101000000001011110010000000101111000 D"
#21
b1100001110000000110000110000000011000010100000001100001000000000110000011000000011000001000000001100000010000000110000000 D"
#22
b1100011110000000110001110000000011000110100000001100011000000000110001011000000011000101000000001100010010000000110001000 D"
#23
b1100101110000000110010110000000011001010100000001100101000000000110010011000000011001001000000001100100010000000110010000 D"
#24
b1100111110000000110011110000000011001110100000001100111000000000110011011000000011001101000000001100110010000000110011000 D"
#25
b1101001110000000110100110000000011010010100000001101001000000000110100011000000011010001000000001101000010000000110100000 D"
#26
b1101011110000000110101110000000011010110100000001101011000000000110101011000000011010101000000001101010010000000110101000 D"
#27
b1101101110000000110110110000000011011010100000001101101000000000110110011000000011011001000000001101100010000000110110000 D"
#28
b1101111110000000110111110000000011011110100000001101111000000000110111011000000011011101000000001101110010000000110111000 D"
#29
b1110001110000000111000110000000011100010100000001110001000000000111000011000000011100001000000001110000010000000111000000 D"
#30
b1110011110000000111001110000000011100110100000001110011000000000111001011000000011100101000000001110010010000000111001000 D"
#31
b1110101110000000111010110000000011101010100000001110101000000000111010011000000011101001000000001110100010000000111010000 D"
#32
b1110111110000000111011110000000011101110100000001110111000000000111011011000000011101101000000001110110010000000111011000 D"
#33
b1111001110000000111100110000000011110010100000001111001000000000111100011000000011110001000000001111000010000000111100000 D"
#34
b1111011110000000111101110000000011110110100000001111011000000000111101011000000011110101000000001111010010000000111101000 D"
#35
b1111101110000000111110110000000011111010100000001111101000000000111110011000000011111001000000001111100010000000111110000 D"
#36
b1111111110000000111111110000000011111110100000001111111000000000111111011000000011111101000000001111110010000000111111000 D"
#37
b10000001110000001000000110000000100000010100000010000001000000001000000011000000100000001000000010000000010000001000000000 D"
#38
b10000011110000001000001110000000100000110100000010000011000000001000001011000000100000101000000010000010010000001000001000 D"
#39
b10000101110000001000010110000000100001010100000010000101000000001000010011000000100001001000000010000100010000001000010000 D"
#40
b10000111110000001000011110000000100001110100000010000111000000001000011011000000100001101000000010000110010000001000011000 D"
#41
b10001001110000001000100110000000100010010100000010001001000000001000100011000000100010001000000010001000010000001000100000 D"
#42
b10001011110000001000101110000000100010110100000010001011000000001000101011000000100010101000000010001010010000001000101000 D"
#43
b10001101110000001000110110000000100011010100000010001101000000001000110011000000100011001000000010001100010000001000110000 D"
#44
b10001111110000001000111110000000100011110100000010001111000000001000111011000000100011101000000010001110010000001000111000 D"
#45
b10010001110000001001000110000000100100010100000010010001000000001001000011000000100100001000000010010000010000001001000000 D"
#46
b10010011110000001001001110000000100100110100000010010011000000001001001011000000100100101000000010010010010000001001001000 D"
#47
b10010101110000001001010110000000100101010100000010010101000000001001010011000000100101001000000010010100010000001001010000 D"
#48
b10010111110000001001011110000000100101110100000010010111000000001001011011000000100101101000000010010110010000001001011000 D"
#49
b10011001110000001001100110000000100110010100000010011001000000001001100011000000100110001000000010011000010000001001100000 D"
#50
b10011011110000001001101110000000100110110100000010011011000000001001101011000000100110101000000010011010010000001001101000 D"
#51
b10011101110000001001110110000000100111010100000010011101000000001001110011000000100111001000000010011100010000001001110000 D"
#52
b10011111110000001001111110000000100111110100000010011111000000001001111011000000100111101000000010011110010000001001111000 D"
#53
b10100001110000001010000110000000101000010100000010100001000000001010000011000000101000001000000010100000010000001010000000 D"
#54
b10100011110000001010001110000000101000110100000010100011000000001010001011000000101000101000000010100010010000001010001000 D"
#55
b10100101110000001010010110000000101001010100000010100101000000001010010011000000101001001000000010100100010000001010010000 D"
#56
b10100111110000001010011110000000101001110100000010100111000000001010011011000000101001101000000010100110010000001010011000 D"
#57
b10101001110000001010100110000000101010010100000010101001000000001010100011000000101010001000000010101000010000001010100000 D"
#58
b10101011110000001010101110000000101010110100000010101011000000001010101011000000101010101000000010101010010000001010101000 D"
#59
b10101101110000001010110110000000101011010100000010101101000000001010110011000000101011001000000010101100010000001010110000 D"
#60
b10101111110000001010111110000000101011110100000010101111000000001010111011000000101011101000000010101110010000001010111000 D"
#61
b10110001110000001011000110000000101100010100000010110001000000001011000011000000101100001000000010110000010000001011000000 D"
#62
b10110011110000001011001110000000101100110100000010110011000000001011001011000000101100101000000010110010010000001011001000 D"
#63
b10110101110000001011010110000000101101010100000010110101000000001011010011000000101101001000000010110100010000001011010000 D"
#64
b10110111110000001011011110000000101101110100000010110111000000001011011011000000101101101000000010110110010000001011011000 D"
#65
b10111001110000001011100110000000101110010100000010111001000000001011100011000000101110001000000010111000010000001011100000 D"
#66
b10111011110000001011101110000000101110110100000010111011000000001011101011000000101110101000000010111010010000001011101000 D"
#67
b10111101110000001011110110000000101111010100000010111101000000001011110011000000101111001000000010111100010000001011110000 D"
#68
b10111111110000001011111110000000101111110100000010111111000000001011111011000000101111101000000010111110010000001011111000 D"
#69
b11000001110000001100000110000000110000010100000011000001000000001100000011000000110000001000000011000000010000001100000000 D"
#70
b11000011110000001100001110000000110000110100000011000011000000001100001011000000110000101000000011000010010000001100001000 D"
#71
b11000101110000001100010110000000110001010100000011000101000000001100010011000000110001001000000011000100010000001100010000 D"
#72
b11000111110000001100011110000000110001110100000011000111000000001100011011000000110001101000000011000110010000001100011000 D"
#73
b11001001110000001100100110000000110010010100000011001001000000001100100011000000110010001000000011001000010000001100100000 D"
#74
b11001011110000001100101110000000110010110100000011001011000000001100101011000000110010101000000011001010010000001100101000 D"
#75
b11001101110000001100110110000000110011010100000011001101000000001100110011000000110011001000000011001100010000001100110000 D"
#76
b11001111110000001100111110000000110011110100000011001111000000001100111011000000110011101000000011001110010000001100111000 D"
#77
b11010001110000001101000110000000110100010100000011010001000000001101000011000000110100001000000011010000010000001101000000 D"
#78
b11010011110000001101001110000000110100110100000011010011000000001101001011000000110100101000000011010010010000001101001000 D"
#79
b11010101110000001101010110000000110101010100000011010101000000001101010011000000110101001000000011010100010000001101010000 D"
#80
b11010111110000001101011110000000110101110100000011010111000000001101011011000000110101101000000011010110010000001101011000 D"
#81
b11011001110000001101100110000000110110010100000011011001000000001101100011000000110110001000000011011000010000001101100000 D"
#82
b11011011110000001101101110000000110110110100000011011011000000001101101011000000110110101000000011011010010000001101101000 D"
#83
b11011101110000001101110110000000110111010100000011011101000000001101110011000000110111001000000011011100010000001101110000 D"
#84
b11011111110000001101111110000000110111110100000011011111000000001101111011000000110111101000000011011110010000001101111000 D"
#85
b11100001110000001110000110000000111000010100000011100001000000001110000011000000111000001000000011100000010000001110000000 D"
#86
b11100011110000001110001110000000111000110100000011100011000000001110001011000000111000101000000011100010010000001110001000 D"
#87
b11100101110000001110010110000000111001010100000011100101000000001110010011000000111001001000000011100100010000001110010000 D"
#88
b11100111110000001110011110000000111001110100000011100111000000001110011011000000111001101000000011100110010000001110011000 D"
#89
b11101001110000001110100110000000111010010100000011101001000000001110100011000000111010001000000011101000010000001110100000 D"
#90
b11101011110000001110101110000000111010110100000011101011000000001110101011000000111010101000000011101010010000001110101000 D"
#91
b11101101110000001110110110000000111011010100000011101101000000001110110011000000111011001000000011101100010000001110110000 D"
#92
b11101111110000001110111110000000111011110100000011101111000000001110111011000000111011101000000011101110010000001110111000 D"
#93
b11110001110000001111000110000000111100010100000011110001000000001111000011000000111100001000000011110000010000001111000000 D"
#94
b11110011110000001111001110000000111100110100000011110011000000001111001011000000111100101000000011110010010000001111001000 D"
#95
b11110101110000001111010110000000111101010100000011110101000000001111010011000000111101001000000011110100010000001111010000 D"
#96
b11110111110000001111011110000000111101110100000011110111000000001111011011000000111101101000000011110110010000001111011000 D"
#97
b11111001110000001111100110000000111110010100000011111001000000001111100011000000111110001000000011111000010000001111100000 D"
#98
b11111011110000001111101110000000111110110100000011111011000000001111101011000000111110101000000011111010010000001111101000 D"
#99
b11111101110000001111110110000000111111010100000011111101000000001111110011000000111111001000000011111100010000001111110000 D"
#100
b11111111110000001111111110000000111111110100000011111111000000001111111011000000111111101000000011111110010000001111111000 D"
1g#
1h#
#101
0g#
#1020
b110000000000000110000000000000010100000000000001000000000000000111000000000000001000000000000000010000000000000000 "
#1022
b10110000000000001110000000000000110100000000000011000000000000001111000000000000101000000000000010010000000000001000 "
#1024
b100110000000000010110000000000001010100000000000101000000000000010111000000000001001000000000000100010000000000010000 "
#1026
b110110000000000011110000000000001110100000000000111000000000000011111000000000001101000000000000110010000000000011000 "
#1028
b1000110000000000100110000000000010010100000000001001000000000000100111000000000010001000000000001000010000000000100000 "
#1030
b1010110000000000101110000000000010110100000000001011000000000000101111000000000010101000000000001010010000000000101000 "
#1032
b1100110000000000110110000000000011010100000000001101000000000000110111000000000011001000000000001100010000000000110000 "
#1034
b1110110000000000111110000000000011110100000000001111000000000000111111000000000011101000000000001110010000000000111000 "
#1036
b10000110000000001000110000000000100010100000000010001000000000001000111000000000100001000000000010000010000000001000000 "
#1038
b10010110000000001001110000000000100110100000000010011000000000001001111000000000100101000000000010010010000000001001000 "
#1040
b10100110000000001010110000000000101010100000000010101000000000001010111000000000101001000000000010100010000000001010000 "
#1042
b10110110000000001011110000000000101110100000000010111000000000001011111000000000101101000000000010110010000000001011000 "
#1044
b11000110000000001100110000000000110010100000000011001000000000001100111000000000110001000000000011000010000000001100000 "
#1046
b11010110000000001101110000000000110110100000000011011000000000001101111000000000110101000000000011010010000000001101000 "
#1048
b11100110000000001110110000000000111010100000000011101000000000001110111000000000111001000000000011100010000000001110000 "
#1050
b11110110000000001111110000000000111110100000000011111000000000001111111000000000111101000000000011110010000000001111000 "
#1052
b100000110000000010000110000000001000010100000000100001000000000010000111000000001000001000000000100000010000000010000000 "
#1054
b100010110000000010001110000000001000110100000000100011000000000010001111000000001000101000000000100010010000000010001000 "
#1056
b100100110000000010010110000000001001010100000000100101000000000010010111000000001001001000000000100100010000000010010000 "
#1058
b100110110000000010011110000000001001110100000000100111000000000010011111000000001001101000000000100110010000000010011000 "
#1060
b101000110000000010100110000000001010010100000000101001000000000010100111000000001010001000000000101000010000000010100000 "
#1062
b101010110000000010101110000000001010110100000000101011000000000010101111000000001010101000000000101010010000000010101000 "
#1064
b101100110000000010110110000000001011010100000000101101000000000010110111000000001011001000000000101100010000000010110000 "
#1066
b101110110000000010111110000000001011110100000000101111000000000010111111000000001011101000000000101110010000000010111000 "
#1068
b110000110000000011000110000000001100010100000000110001000000000011000111000000001100001000000000110000010000000011000000 "
#1070
b110010110000000011001110000000001100110100000000110011000000000011001111000000001100101000000000110010010000000011001000 "
#1072
b110100110000000011010110000000001101010100000000110101000000000011010111000000001101001000000000110100010000000011010000 "
#1074
b110110110000000011011110000000001101110100000000110111000000000011011111000000001101101000000000110110010000000011011000 "
#1076
b111000110000000011100110000000001110010100000000111001000000000011100111000000001110001000000000111000010000000011100000 "
#1078
b111010110000000011101110000000001110110100000000111011000000000011101111000000001110101000000000111010010000000011101000 "
#1080
b111100110000000011110110000000001111010100000000111101000000000011110111000000001111001000000000111100010000000011110000 "
#1082
b111110110000000011111110000000001111110100000000111111000000000011111111000000001111101000000000111110010000000011111000 "
#1084
b1000000110000000100000110000000010000010100000001000001000000000100000111000000010000001000000001000000010000000100000000 "
#1086
b1000010110000000100001110000000010000110100000001000011000000000100001111000000010000101000000001000010010000000100001000 "
#1088
b1000100110000000100010110000000010001010100000001000101000000000100010111000000010001001000000001000100010000000100010000 "
#1090
b1000110110000000100011110000000010001110100000001000111000000000100011111000000010001101000000001000110010000000100011000 "
#1092
b1001000110000000100100110000000010010010100000001001001000000000100100111000000010010001000000001001000010000000100100000 "
#1094
b1001010110000000100101110000000010010110100000001001011000000000100101111000000010010101000000001001010010000000100101000 "
#1096
b1001100110000000100110110000000010011010100000001001101000000000100110111000000010011001000000001001100010000000100110000 "
#1098
b1001110110000000100111110000000010011110100000001001111000000000100111111000000010011101000000001001110010000000100111000 "
#1100
b1010000110000000101000110000000010100010100000001010001000000000101000111000000010100001000000001010000010000000101000000 "
#1102
b1010010110000000101001110000000010100110100000001010011000000000101001111000000010100101000000001010010010000000101001000 "
#1104
b1010100110000000101010110000000010101010100000001010101000000000101010111000000010101001000000001010100010000000101010000 "
#1106
b1010110110000000101011110000000010101110100000001010111000000000101011111000000010101101000000001010110010000000101011000 "
#1108
b1011000110000000101100110000000010110010100000001011001000000000101100111000000010110001000000001011000010000000101100000 "
#1110
b1011010110000000101101110000000010110110100000001011011000000000101101111000000010110101000000001011010010000000101101000 "
#1112
b1011100110000000101110110000000010111010100000001011101000000000101110111000000010111001000000001011100010000000101110000 "
#1114
b1011110110000000101111110000000010111110100000001011111000000000101111111000000010111101000000001011110010000000101111000 "
#1116
b1100000110000000110000110000000011000010100000001100001000000000110000111000000011000001000000001100000010000000110000000 "
#1118
b1100010110000000110001110000000011000110100000001100011000000000110001111000000011000101000000001100010010000000110001000 "
#1120
b1100100110000000110010110000000011001010100000001100101000000000110010111000000011001001000000001100100010000000110010000 "
#1122
b1100110110000000110011110000000011001110100000001100111000000000110011111000000011001101000000001100110010000000110011000 "
#1124
b1101000110000000110100110000000011010010100000001101001000000000110100111000000011010001000000001101000010000000110100000 "
#1126
b1101010110000000110101110000000011010110100000001101011000000000110101111000000011010101000000001101010010000000110101000 "
#1128
b1101100110000000110110110000000011011010100000001101101000000000110110111000000011011001000000001101100010000000110110000 "
#1130
b1101110110000000110111110000000011011110100000001101111000000000110111111000000011011101000000001101110010000000110111000 "
#1132
b1110000110000000111000110000000011100010100000001110001000000000111000111000000011100001000000001110000010000000111000000 "
#1134
b1110010110000000111001110000000011100110100000001110011000000000111001111000000011100101000000001110010010000000111001000 "
#1136
b1110100110000000111010110000000011101010100000001110101000000000111010111000000011101001000000001110100010000000111010000 "
#1138
b1110110110000000111011110000000011101110100000001110111000000000111011111000000011101101000000001110110010000000111011000 "
#1140
b1111000110000000111100110000000011110010100000001111001000000000111100111000000011110001000000001111000010000000111100000 "
#1142
b1111010110000000111101110000000011110110100000001111011000000000111101111000000011110101000000001111010010000000111101000 "
#1144
b1111100110000000111110110000000011111010100000001111101000000000111110111000000011111001000000001111100010000000111110000 "
#1146
b111110110000000111111110000000011111110100000001111111000000000111111111000000011111101000000001111110010000000111111000 "
#1148
b10000000110000001000000110000000100000010100000010000001000000001000000111000000100000001000000010000000010000001000000000 "
#1150
b10000010110000001000001110000000100000110100000010000011000000001000001111000000100000101000000010000010010000001000001000 "
#1152
b10000100110000001000010110000000100001010100000010000101000000001000010111000000100001001000000010000100010000001000010000 "
#1154
b10000110110000001000011110000000100001110100000010000111000000001000011111000000100001101000000010000110010000001000011000 "
#1156
b10001000110000001000100110000000100010010100000010001001000000001000100111000000100010001000000010001000010000001000100000 "
#1158
b10001010110000001000101110000000100010110100000010001011000000001000101111000000100010101000000010001010010000001000101000 "
#1160
b10001100110000001000110110000000100011010100000010001101000000001000110111000000100011001000000010001100010000001000110000 "
#1162
b10001110110000001000111110000000100011110100000010001111000000001000111111000000100011101000000010001110010000001000111000 "
#1164
b10010000110000001001000110000000100100010100000010010001000000001001000111000000100100001000000010010000010000001001000000 "
#1166
b10010010110000001001001110000000100100110100000010010011000000001001001111000000100100101000000010010010010000001001001000 "
#1168
b10010100110000001001010110000000100101010100000010010101000000001001010111000000100101001000000010010100010000001001010000 "
#1170
b10010110110000001001011110000000100101110100000010010111000000001001011111000000100101101000000010010110010000001001011000 "
#1172
b10011000110000001001100110000000100110010100000010011001000000001001100111000000100110001000000010011000010000001001100000 "
#1174
b10011010110000001001101110000000100110110100000010011011000000001001101111000000100110101000000010011010010000001001101000 "
#1176
b10011100110000001001110110000000100111010100000010011101000000001001110111000000100111001000000010011100010000001001110000 "
#1178
b10011110110000001001111110000000100111110100000010011111000000001001111111000000100111101000000010011110010000001001111000 "
#1204
b10100000110000001010000110000000101000010100000010100001000000001010000111000000101000001000000010100000010000001010000000 "
#1206
b10100010110000001010001110000000101000110100000010100011000000001010001111000000101000101000000010100010010000001010001000 "
#1208
b10100100110000001010010110000000101001010100000010100101000000001010010111000000101001001000000010100100010000001010010000 "
#1210
b10100110110000001010011110000000101001110100000010100111000000001010011111000000101001101000000010100110010000001010011000 "
#1212
b10101000110000001010100110000000101010010100000010101001000000001010100111000000101010001000000010101000010000001010100000 "
#1214
b10101010110000001010101110000000101010110100000010101011000000001010101111000000101010101000000010101010010000001010101000 "
#1216
b10101100110000001010110110000000101011010100000010101101000000001010110111000000101011001000000010101100010000001010110000 "
#1218
b10101110110000001010111110000000101011110100000010101111000000001010111111000000101011101000000010101110010000001010111000 "
#1220
b10110000110000001011000110000000101100010100000010110001000000001011000111000000101100001000000010110000010000001011000000 "
#1222
b10110010110000001011001110000000101100110100000010110011000000001011001111000000101100101000000010110010010000001011001000 "
#1224
b10110100110000001011010110000000101101010100000010110101000000001011010111000000101101001000000010110100010000001011010000 "
#1226
b10110110110000001011011110000000101101110100000010110111000000001011011111000000101101101000000010110110010000001011011000 "
#1228
b10111000110000001011100110000000101110010100000010111001000000001011100111000000101110001000000010111000010000001011100000 "
#1230
b10111010110000001011101110000000101110110100000010111011000000001011101111000000101110101000000010111010010000001011101000 "
#1232
b10111100110000001011110110000000101111010100000010111101000000001011110111000000101111001000000010111100010000001011110000 "
#1234
b11111110110000001011111110000000101111110100000010111111000000001011111111000000101111101000000010111110010000001011111000 "
#1236
b11000000110000001100000110000000110000010100000011000001000000001100000111000000110000001000000011000000010000001100000000 "
#1238
b11000010110000001100001110000000110000110100000011000011000000001100001111000000110000101000000011000010010000001100001000 "
#1240
b11000100110000001100010110000000110001010100000011000101000000001100010111000000110001001000000011000100010000001100010000 "
#1242
b11000110110000001100011110000000110001110100000011000111000000001100011111000000110001101000000011000110010000001100011000 "
#1244
b11001000110000001100100110000000110010010100000011001001000000001100100111000000110010001000000011001000010000001100100000 "
#1246
b11001010110000001100101110000000110010110100000011001011000000001100101111000000110010101000000011001010010000001100101000 "
#1248
b11001100110000001100110110000000110011010100000011001101000000001100110111000000110011001000000011001100010000001100110000 "
#1250
b11001110110000001100111110000000110011110100000011001111000000001100111111000000110011101000000011001110010000001100111000 "
#1252
b11010000110000001101000110000000110100010100000011010001000000001101000111000000110100001000000011010000010000001101000000 "
#1254
b11010010110000001101001110000000110100110100000011010011000000001101001111000000110100101000000011010010010000001101001000 "
#1256
b11010100110000001101010110000000110101010100000011010101000000001101010111000000110101001000000011010100010000001101010000 "
#1258
b11010110110000001101011110000000110101110100000011010111000000001101011111000000110101101000000011010110010000001101011000 "
#1260
b11011000110000001101100110000000110110010100000011011001000000001101100111000000110110001000000011011000010000001101100000 "
#1262
b11011010110000001101101110000000110110110100000011011011000000001101101111000000110110101000000011011010010000001101101000 "
#1264
b11011100110000001101110110000000110111010100000011011101000000001101110111000000110111001000000011011100010000001101110000 "
#1266
b11011110110000001101111110000000110111110100000011011111000000001101111111000000110111101000000011011110010000001101111000 "
#1268
b11100000110000001110000110000000111000010100000011100001000000001110000111000000111000001000000011100000010000001110000000 "
#1270
b11100010110000001110001110000000111000110100000011100011000000001110001111000000111000101000000011100010010000001110001000 "
#1272
b11100100110000001110010110000000111001010100000011100101000000001110010111000000111001001000000011100100010000001110010000 "
#1274
b11100110110000001110011110000000111001110100000011100111000000001110011111000000111001101000000011100110010000001110011000 "
#1276
b11101000110000001110100110000000111010010100000011101001000000001110100111000000111010001000000011101000010000001110100000 "
#1278
b11101010110000001110101110000000111010110100000011101011000000001110101111000000111010101000000011101010010000001110101000 "
#1280
b11101100110000001110110110000000111011010100000011101101000000001110110111000000111011001000000011101100010000001110110000 "
#1282
b11101110110000001110111110000000111011110100000011101111000000001110111111000000111011101000000011101110010000001110111000 "
#1284
b11110000110000001111000110000000111100010100000011110001000000001111000111000000111100001000000011110000010000001111000000 "
#1286
b11110010110000001111001110000000111100110100000011110011000000001111001111000000111100101000000011110010010000001111001000 "
#1288
b11110100110000001111010110000000111101010100000011110101000000001111010111000000111101001000000011110100010000001111010000 "
#1290
b11110110110000001111011110000000111101110100000011110111000000001111011111000000111101101000000011110110010000001111011000 "
#1292
b11111000110000001111100110000000111110010100000011111001000000001111100111000000111110001000000011111000010000001111100000 "
#1294
b11111010110000001111101110000000111110110100000011111011000000001111101111000000111110101000000011111010010000001111101000 "
#1296
b11111100110000001111110110000000111111010100000011111101000000001111110111000000111111001000000011111100010000001111110000 "
#1298
b10111110110000001111111110000000111111110100000011111111000000001111111111000000111111101000000011111110010000001111111000 "
1f#
#1299
0f#
