.Xil/Vivado-11692-else/hw_ila_data_1/zip_work/waveform.vcd
$date
        2024-May-05 19:16:48
$end
$version
        Vivado v2018.3 (64-bit)
$end
$timescale
        1ps
$end
$scope module dut $end
$var reg 16 " u_zc_ddr_mig/u_zc_ddr3_phy/rd_data0_w [15:0] $end
$var reg 16 2 u_zc_ddr_mig/u_zc_ddr3_phy/rd_data1_w [15:0] $end
$var reg 16 B u_zc_ddr_mig/u_zc_ddr3_phy/rd_data3_w [15:0] $end
$var reg 16 R u_zc_ddr_mig/u_zc_ddr3_phy/rd_data2_w [15:0] $end
$var reg 1 b u_m_axi_top/mc_init_done $end
$var reg 1 c _TRIGGER $end
$var reg 1 d _WINDOW $end
$var reg 1 e _GAP $end
$upscope $end
$enddefinitions $end
#0
$dumpvars
b0 "
b0 2
b0 B
b0 R
1b
0c
1d
0e
$end
#100
b10 "
b1 2
b1 B
b10 R
1c
#101
b100 "
b11 2
b11 B
b100 R
#102
b110 "
b101 2
b101 B
b110 R
#103
b1000 "
b111 2
b111 B
b1000 R
#104
b1010 "
b1001 2
b1001 B
b1010 R
#105
b1100 "
b1011 2
b1011 B
b1100 R
#106
b1110 "
b1101 2
b1101 B
b1110 R
#107
b10000 "
b1111 2
b1111 B
b10000 R
#108
b10010 "
b10001 2
b10001 B
b10010 R
#109
b10100 "
b10011 2
b10011 B
b10100 R
#110
b10110 "
b10101 2
b10101 B
b10110 R
#111
b11000 "
b10111 2
b10111 B
b11000 R
#112
b11010 "
b11001 2
b11001 B
b11010 R
#113
b11100 "
b11011 2
b11011 B
b11100 R
#114
b11110 "
b11101 2
b11101 B
b11110 R
#115
b100000 "
b11111 2
b11111 B
b100000 R
#116
b100010 "
b100001 2
b100001 B
b100010 R
#117
b100100 "
b100011 2
b100011 B
b100100 R
#118
b100110 "
b100101 2
b100101 B
b100110 R
#119
b101000 "
b100111 2
b100111 B
b101000 R
#120
b101010 "
b101001 2
b101001 B
b101010 R
#121
b101100 "
b101011 2
b101011 B
b101100 R
#122
b101110 "
b101101 2
b101101 B
b101110 R
#123
b110000 "
b101111 2
b101111 B
b110000 R
#124
b110010 "
b110001 2
b110001 B
b110010 R
#125
b110100 "
b110011 2
b110011 B
b110100 R
#126
b110110 "
b110101 2
b110101 B
b110110 R
#127
b111000 "
b110111 2
b110111 B
b111000 R
#128
b111010 "
b111001 2
b111001 B
b111010 R
#129
b111100 "
b111011 2
b111011 B
b111100 R
#130
b111110 "
b111101 2
b111101 B
b111110 R
#131
b1000000 "
b111111 2
b111111 B
b1000000 R
#132
b1000010 "
b1000001 2
b1000001 B
b1000010 R
#133
b1000100 "
b1000011 2
b1000011 B
b1000100 R
#134
b1000110 "
b1000101 2
b1000101 B
b1000110 R
#135
b1001000 "
b1000111 2
b1000111 B
b1001000 R
#136
b1001010 "
b1001001 2
b1001001 B
b1001010 R
#137
b1001100 "
b1001011 2
b1001011 B
b1001100 R
#138
b1001110 "
b1001101 2
b1001101 B
b1001110 R
#139
b1010000 "
b1001111 2
b1001111 B
b1010000 R
#140
b1010010 "
b1010001 2
b1010001 B
b1010010 R
#141
b1010100 "
b1010011 2
b1010011 B
b1010100 R
#142
b1010110 "
b1010101 2
b1010101 B
b1010110 R
#143
b1011000 "
b1010111 2
b1010111 B
b1011000 R
#144
b1011010 "
b1011001 2
b1011001 B
b1011010 R
#145
b1011100 "
b1011011 2
b1011011 B
b1011100 R
#146
b1011110 "
b1011101 2
b1011101 B
b1011110 R
#147
b1100000 "
b1011111 2
b1011111 B
b1100000 R
#148
b1100010 "
b1100001 2
b1100001 B
b1100010 R
#149
b1100100 "
b1100011 2
b1100011 B
b1100100 R
#150
b1100110 "
b1100101 2
b1100101 B
b1100110 R
#151
b1101000 "
b1100111 2
b1100111 B
b1101000 R
#152
b1101010 "
b1101001 2
b1101001 B
b1101010 R
#153
b1101100 "
b1101011 2
b1101011 B
b1101100 R
#154
b1101110 "
b1101101 2
b1101101 B
b1101110 R
#155
b1110000 "
b1101111 2
b1101111 B
b1110000 R
#156
b1110010 "
b1110001 2
b1110001 B
b1110010 R
#157
b1110100 "
b1110011 2
b1110011 B
b1110100 R
#158
b1110110 "
b1110101 2
b1110101 B
b1110110 R
#159
b1111000 "
b1110111 2
b1110111 B
b1111000 R
#160
b1111010 "
b1111001 2
b1111001 B
b1111010 R
#161
b1111100 "
b1111011 2
b1111011 B
b1111100 R
#162
b1111110 "
b1111101 2
b1111101 B
b1111110 R
#163
b10000000 "
b1111111 2
b1111111 B
b10000000 R
#164
b10000010 "
b10000001 2
b10000001 B
b10000010 R
#165
b10000100 "
b10000011 2
b10000011 B
b10000100 R
#166
b10000110 "
b10000101 2
b10000101 B
b10000110 R
#167
b10001000 "
b10000111 2
b10000111 B
b10001000 R
#168
b10001010 "
b10001001 2
b10001001 B
b10001010 R
#169
b10001100 "
b10001011 2
b10001011 B
b10001100 R
#170
b10001110 "
b10001101 2
b10001101 B
b10001110 R
#171
b10010000 "
b10001111 2
b10001111 B
b10010000 R
#172
b10010010 "
b10010001 2
b10010001 B
b10010010 R
#173
b10010100 "
b10010011 2
b10010011 B
b10010100 R
#174
b10010110 "
b10010101 2
b10010101 B
b10010110 R
#175
b10011000 "
b10010111 2
b10010111 B
b10011000 R
#176
b10011010 "
b10011001 2
b10011001 B
b10011010 R
#177
b10011100 "
b10011011 2
b10011011 B
b10011100 R
#178
b10011110 "
b10011101 2
b10011101 B
b10011110 R
#179
b10100000 "
b10011111 2
b10011111 B
b10100000 R
#180
b10100010 "
b10100001 2
b10100001 B
b10100010 R
#181
b10100100 "
b10100011 2
b10100011 B
b10100100 R
#182
b10100110 "
b10100101 2
b10100101 B
b10100110 R
#183
b10101000 "
b10100111 2
b10100111 B
b10101000 R
#184
b10101010 "
b10101001 2
b10101001 B
b10101010 R
#185
b10101100 "
b10101011 2
b10101011 B
b10101100 R
#186
b10101110 "
b10101101 2
b10101101 B
b10101110 R
#187
b10110000 "
b10101111 2
b10101111 B
b10110000 R
#188
b10110010 "
b10110001 2
b10110001 B
b10110010 R
#189
b10110100 "
b10110011 2
b10110011 B
b10110100 R
#190
b10110110 "
b10110101 2
b10110101 B
b10110110 R
#191
b10111000 "
b10110111 2
b10110111 B
b10111000 R
#192
b10111010 "
b10111001 2
b10111001 B
b10111010 R
#193
b10111100 "
b10111011 2
b10111011 B
b10111100 R
#194
b10111110 "
b10111101 2
b10111101 B
b10111110 R
#195
b11000000 "
b10111111 2
b10111111 B
b11000000 R
#196
b11000010 "
b11000001 2
b11000001 B
b11000010 R
#197
b11000100 "
b11000011 2
b11000011 B
b11000100 R
#198
b11000110 "
b11000101 2
b11000101 B
b11000110 R
#199
b11001000 "
b11000111 2
b11000111 B
b11001000 R
#200
b11001010 "
b11001001 2
b11001001 B
b11001010 R
#201
b11001100 "
b11001011 2
b11001011 B
b11001100 R
#202
b11001110 "
b11001101 2
b11001101 B
b11001110 R
#203
b11010000 "
b11001111 2
b11001111 B
b11010000 R
#204
b11010010 "
b11010001 2
b11010001 B
b11010010 R
#205
b11010100 "
b11010011 2
b11010011 B
b11010100 R
#206
b11010110 "
b11010101 2
b11010101 B
b11010110 R
#207
b11011000 "
b11010111 2
b11010111 B
b11011000 R
#208
b11011010 "
b11011001 2
b11011001 B
b11011010 R
#209
b11011100 "
b11011011 2
b11011011 B
b11011100 R
#210
b11011110 "
b11011101 2
b11011101 B
b11011110 R
#211
b11100000 "
b11011111 2
b11011111 B
b11100000 R
#212
b11100010 "
b11100001 2
b11100001 B
b11100010 R
#213
b11100100 "
b11100011 2
b11100011 B
b11100100 R
#214
b11100110 "
b11100101 2
b11100101 B
b11100110 R
#215
b11101000 "
b11100111 2
b11100111 B
b11101000 R
#216
b11101010 "
b11101001 2
b11101001 B
b11101010 R
#217
b11101100 "
b11101011 2
b11101011 B
b11101100 R
#218
b11101110 "
b11101101 2
b11101101 B
b11101110 R
#219
b11110000 "
b11101111 2
b11101111 B
b11110000 R
#220
b11110010 "
b11110001 2
b11110001 B
b11110010 R
#221
b11110100 "
b11110011 2
b11110011 B
b11110100 R
#222
b11110110 "
b11110101 2
b11110101 B
b11110110 R
#223
b11111000 "
b11110111 2
b11110111 B
b11111000 R
#224
b11111010 "
b11111001 2
b11111001 B
b11111010 R
#225
b11111100 "
b11111011 2
b11111011 B
b11111100 R
#226
b11111110 "
b11111101 2
b11111101 B
b11111110 R
#227
b0 "
b11111111 2
b11111111 B
b0 R
#276
b100000010 "
b100000001 2
b100000001 B
b100000010 R
#277
b100000100 "
b100000011 2
b100000011 B
b100000100 R
#278
b100000110 "
b100000101 2
b100000101 B
b100000110 R
#279
b100001000 "
b100000111 2
b100000111 B
b100001000 R
#280
b100001010 "
b100001001 2
b100001001 B
b100001010 R
#281
b100001100 "
b100001011 2
b100001011 B
b100001100 R
#282
b100001110 "
b100001101 2
b100001101 B
b100001110 R
#283
b100010000 "
b100001111 2
b100001111 B
b100010000 R
#284
b100010010 "
b100010001 2
b100010001 B
b100010010 R
#285
b100010100 "
b100010011 2
b100010011 B
b100010100 R
#286
b100010110 "
b100010101 2
b100010101 B
b100010110 R
#287
b100011000 "
b100010111 2
b100010111 B
b100011000 R
#288
b100011010 "
b100011001 2
b100011001 B
b100011010 R
#289
b100011100 "
b100011011 2
b100011011 B
b100011100 R
#290
b100011110 "
b100011101 2
b100011101 B
b100011110 R
#291
b100100000 "
b100011111 2
b100011111 B
b100100000 R
#292
b100100010 "
b100100001 2
b100100001 B
b100100010 R
#293
b100100100 "
b100100011 2
b100100011 B
b100100100 R
#294
b100100110 "
b100100101 2
b100100101 B
b100100110 R
#295
b100101000 "
b100100111 2
b100100111 B
b100101000 R
#296
b100101010 "
b100101001 2
b100101001 B
b100101010 R
#297
b100101100 "
b100101011 2
b100101011 B
b100101100 R
#298
b100101110 "
b100101101 2
b100101101 B
b100101110 R
#299
b100110000 "
b100101111 2
b100101111 B
b100110000 R
#300
b100110010 "
b100110001 2
b100110001 B
b100110010 R
#301
b100110100 "
b100110011 2
b100110011 B
b100110100 R
#302
b100110110 "
b100110101 2
b100110101 B
b100110110 R
#303
b100111000 "
b100110111 2
b100110111 B
b100111000 R
#304
b100111010 "
b100111001 2
b100111001 B
b100111010 R
#305
b100111100 "
b100111011 2
b100111011 B
b100111100 R
#306
b100111110 "
b100111101 2
b100111101 B
b100111110 R
#307
b101000000 "
b100111111 2
b100111111 B
b101000000 R
#308
b101000010 "
b101000001 2
b101000001 B
b101000010 R
#309
b101000100 "
b101000011 2
b101000011 B
b101000100 R
#310
b101000110 "
b101000101 2
b101000101 B
b101000110 R
#311
b101001000 "
b101000111 2
b101000111 B
b101001000 R
#312
b101001010 "
b101001001 2
b101001001 B
b101001010 R
#313
b101001100 "
b101001011 2
b101001011 B
b101001100 R
#314
b101001110 "
b101001101 2
b101001101 B
b101001110 R
#315
b101010000 "
b101001111 2
b101001111 B
b101010000 R
#316
b101010010 "
b101010001 2
b101010001 B
b101010010 R
#317
b101010100 "
b101010011 2
b101010011 B
b101010100 R
#318
b101010110 "
b101010101 2
b101010101 B
b101010110 R
#319
b101011000 "
b101010111 2
b101010111 B
b101011000 R
#320
b101011010 "
b101011001 2
b101011001 B
b101011010 R
#321
b101011100 "
b101011011 2
b101011011 B
b101011100 R
#322
b101011110 "
b101011101 2
b101011101 B
b101011110 R
#323
b101100000 "
b101011111 2
b101011111 B
b101100000 R
#324
b101100010 "
b101100001 2
b101100001 B
b101100010 R
#325
b101100100 "
b101100011 2
b101100011 B
b101100100 R
#326
b101100110 "
b101100101 2
b101100101 B
b101100110 R
#327
b101101000 "
b101100111 2
b101100111 B
b101101000 R
#328
b101101010 "
b101101001 2
b101101001 B
b101101010 R
#329
b101101100 "
b101101011 2
b101101011 B
b101101100 R
#330
b101101110 "
b101101101 2
b101101101 B
b101101110 R
#331
b101110000 "
b101101111 2
b101101111 B
b101110000 R
#332
b101110010 "
b101110001 2
b101110001 B
b101110010 R
#333
b101110100 "
b101110011 2
b101110011 B
b101110100 R
#334
b101110110 "
b101110101 2
b101110101 B
b101110110 R
#335
b101111000 "
b101110111 2
b101110111 B
b101111000 R
#336
b101111010 "
b101111001 2
b101111001 B
b101111010 R
#337
b101111100 "
b101111011 2
b101111011 B
b101111100 R
#338
b101111110 "
b101111101 2
b101111101 B
b101111110 R
#339
b110000000 "
b101111111 2
b101111111 B
b110000000 R
#340
b110000010 "
b110000001 2
b110000001 B
b110000010 R
#341
b110000100 "
b110000011 2
b110000011 B
b110000100 R
#342
b110000110 "
b110000101 2
b110000101 B
b110000110 R
#343
b110001000 "
b110000111 2
b110000111 B
b110001000 R
#344
b110001010 "
b110001001 2
b110001001 B
b110001010 R
#345
b110001100 "
b110001011 2
b110001011 B
b110001100 R
#346
b110001110 "
b110001101 2
b110001101 B
b110001110 R
#347
b110010000 "
b110001111 2
b110001111 B
b110010000 R
#348
b110010010 "
b110010001 2
b110010001 B
b110010010 R
#349
b110010100 "
b110010011 2
b110010011 B
b110010100 R
#350
b110010110 "
b110010101 2
b110010101 B
b110010110 R
#351
b110011000 "
b110010111 2
b110010111 B
b110011000 R
#352
b110011010 "
b110011001 2
b110011001 B
b110011010 R
#353
b110011100 "
b110011011 2
b110011011 B
b110011100 R
#354
b110011110 "
b110011101 2
b110011101 B
b110011110 R
#355
b110100000 "
b110011111 2
b110011111 B
b110100000 R
#356
b110100010 "
b110100001 2
b110100001 B
b110100010 R
#357
b110100100 "
b110100011 2
b110100011 B
b110100100 R
#358
b110100110 "
b110100101 2
b110100101 B
b110100110 R
#359
b110101000 "
b110100111 2
b110100111 B
b110101000 R
#360
b110101010 "
b110101001 2
b110101001 B
b110101010 R
#361
b110101100 "
b110101011 2
b110101011 B
b110101100 R
#362
b110101110 "
b110101101 2
b110101101 B
b110101110 R
#363
b110110000 "
b110101111 2
b110101111 B
b110110000 R
#364
b110110010 "
b110110001 2
b110110001 B
b110110010 R
#365
b110110100 "
b110110011 2
b110110011 B
b110110100 R
#366
b110110110 "
b110110101 2
b110110101 B
b110110110 R
#367
b110111000 "
b110110111 2
b110110111 B
b110111000 R
#368
b110111010 "
b110111001 2
b110111001 B
b110111010 R
#369
b110111100 "
b110111011 2
b110111011 B
b110111100 R
#370
b110111110 "
b110111101 2
b110111101 B
b110111110 R
#371
b111000000 "
b110111111 2
b110111111 B
b111000000 R
#372
b111000010 "
b111000001 2
b111000001 B
b111000010 R
#373
b111000100 "
b111000011 2
b111000011 B
b111000100 R
#374
b111000110 "
b111000101 2
b111000101 B
b111000110 R
#375
b111001000 "
b111000111 2
b111000111 B
b111001000 R
#376
b111001010 "
b111001001 2
b111001001 B
b111001010 R
#377
b111001100 "
b111001011 2
b111001011 B
b111001100 R
#378
b111001110 "
b111001101 2
b111001101 B
b111001110 R
#379
b111010000 "
b111001111 2
b111001111 B
b111010000 R
#380
b111010010 "
b111010001 2
b111010001 B
b111010010 R
#381
b111010100 "
b111010011 2
b111010011 B
b111010100 R
#382
b111010110 "
b111010101 2
b111010101 B
b111010110 R
#383
b111011000 "
b111010111 2
b111010111 B
b111011000 R
#384
b111011010 "
b111011001 2
b111011001 B
b111011010 R
#385
b111011100 "
b111011011 2
b111011011 B
b111011100 R
#386
b111011110 "
b111011101 2
b111011101 B
b111011110 R
#387
b111100000 "
b111011111 2
b111011111 B
b111100000 R
#388
b111100010 "
b111100001 2
b111100001 B
b111100010 R
#389
b111100100 "
b111100011 2
b111100011 B
b111100100 R
#390
b111100110 "
b111100101 2
b111100101 B
b111100110 R
#391
b111101000 "
b111100111 2
b111100111 B
b111101000 R
#392
b111101010 "
b111101001 2
b111101001 B
b111101010 R
#393
b111101100 "
b111101011 2
b111101011 B
b111101100 R
#394
b111101110 "
b111101101 2
b111101101 B
b111101110 R
#395
b111110000 "
b111101111 2
b111101111 B
b111110000 R
#396
b111110010 "
b111110001 2
b111110001 B
b111110010 R
#397
b111110100 "
b111110011 2
b111110011 B
b111110100 R
#398
b111110110 "
b111110101 2
b111110101 B
b111110110 R
#399
b111111000 "
b111110111 2
b111110111 B
b111111000 R
#400
b111111010 "
b111111001 2
b111111001 B
b111111010 R
#401
b111111100 "
b111111011 2
b111111011 B
b111111100 R
#402
b111111110 "
b111111101 2
b111111101 B
b111111110 R
#403
b1000000000 "
b111111111 2
b111111111 B
b1000000000 R
#404
b1000000010 "
b1000000001 2
b1000000001 B
b1000000010 R
#405
b1000000100 "
b1000000011 2
b1000000011 B
b1000000100 R
#406
b1000000110 "
b1000000101 2
b1000000101 B
b1000000110 R
#407
b1000001000 "
b1000000111 2
b1000000111 B
b1000001000 R
#408
b1000001010 "
b1000001001 2
b1000001001 B
b1000001010 R
#409
b1000001100 "
b1000001011 2
b1000001011 B
b1000001100 R
#410
b1000001110 "
b1000001101 2
b1000001101 B
b1000001110 R
#411
b1000010000 "
b1000001111 2
b1000001111 B
b1000010000 R
#412
b1000010010 "
b1000010001 2
b1000010001 B
b1000010010 R
#413
b1000010100 "
b1000010011 2
b1000010011 B
b1000010100 R
#414
b1000010110 "
b1000010101 2
b1000010101 B
b1000010110 R
#415
b1000011000 "
b1000010111 2
b1000010111 B
b1000011000 R
#416
b1000011010 "
b1000011001 2
b1000011001 B
b1000011010 R
#417
b1000011100 "
b1000011011 2
b1000011011 B
b1000011100 R
#418
b1000011110 "
b1000011101 2
b1000011101 B
b1000011110 R
#419
b1000100000 "
b1000011111 2
b1000011111 B
b1000100000 R
#420
b1000100010 "
b1000100001 2
b1000100001 B
b1000100010 R
#421
b1000100100 "
b1000100011 2
b1000100011 B
b1000100100 R
#422
b1000100110 "
b1000100101 2
b1000100101 B
b1000100110 R
#423
b1000101000 "
b1000100111 2
b1000100111 B
b1000101000 R
#424
b1000101010 "
b1000101001 2
b1000101001 B
b1000101010 R
#425
b1000101100 "
b1000101011 2
b1000101011 B
b1000101100 R
#426
b1000101110 "
b1000101101 2
b1000101101 B
b1000101110 R
#427
b1000110000 "
b1000101111 2
b1000101111 B
b1000110000 R
#428
b1000110010 "
b1000110001 2
b1000110001 B
b1000110010 R
#429
b1000110100 "
b1000110011 2
b1000110011 B
b1000110100 R
#430
b1000110110 "
b1000110101 2
b1000110101 B
b1000110110 R
#431
b1000111000 "
b1000110111 2
b1000110111 B
b1000111000 R
#432
b1000111010 "
b1000111001 2
b1000111001 B
b1000111010 R
#433
b1000111100 "
b1000111011 2
b1000111011 B
b1000111100 R
#434
b1000111110 "
b1000111101 2
b1000111101 B
b1000111110 R
#435
b1001000000 "
b1000111111 2
b1000111111 B
b1001000000 R
#436
b1001000010 "
b1001000001 2
b1001000001 B
b1001000010 R
#437
b1001000100 "
b1001000011 2
b1001000011 B
b1001000100 R
#438
b1001000110 "
b1001000101 2
b1001000101 B
b1001000110 R
#439
b1001001000 "
b1001000111 2
b1001000111 B
b1001001000 R
#440
b1001001010 "
b1001001001 2
b1001001001 B
b1001001010 R
#441
b1001001100 "
b1001001011 2
b1001001011 B
b1001001100 R
#442
b1001001110 "
b1001001101 2
b1001001101 B
b1001001110 R
#443
b1001010000 "
b1001001111 2
b1001001111 B
b1001010000 R
#444
b1001010010 "
b1001010001 2
b1001010001 B
b1001010010 R
#445
b1001010100 "
b1001010011 2
b1001010011 B
b1001010100 R
#446
b1001010110 "
b1001010101 2
b1001010101 B
b1001010110 R
#447
b1001011000 "
b1001010111 2
b1001010111 B
b1001011000 R
#448
b1001011010 "
b1001011001 2
b1001011001 B
b1001011010 R
#449
b1001011100 "
b1001011011 2
b1001011011 B
b1001011100 R
#450
b1001011110 "
b1001011101 2
b1001011101 B
b1001011110 R
#451
b1001100000 "
b1001011111 2
b1001011111 B
b1001100000 R
#452
b1001100010 "
b1001100001 2
b1001100001 B
b1001100010 R
#453
b1001100100 "
b1001100011 2
b1001100011 B
b1001100100 R
#454
b1001100110 "
b1001100101 2
b1001100101 B
b1001100110 R
#455
b1001101000 "
b1001100111 2
b1001100111 B
b1001101000 R
#456
b1001101010 "
b1001101001 2
b1001101001 B
b1001101010 R
#457
b1001101100 "
b1001101011 2
b1001101011 B
b1001101100 R
#458
b1001101110 "
b1001101101 2
b1001101101 B
b1001101110 R
#459
b1001110000 "
b1001101111 2
b1001101111 B
b1001110000 R
#460
b1001110010 "
b1001110001 2
b1001110001 B
b1001110010 R
#461
b1001110100 "
b1001110011 2
b1001110011 B
b1001110100 R
#462
b1001110110 "
b1001110101 2
b1001110101 B
b1001110110 R
#463
b1001111000 "
b1001110111 2
b1001110111 B
b1001111000 R
#464
b1001111010 "
b1001111001 2
b1001111001 B
b1001111010 R
#465
b1001111100 "
b1001111011 2
b1001111011 B
b1001111100 R
#466
b1001111110 "
b1001111101 2
b1001111101 B
b1001111110 R
#467
b1010000000 "
b1001111111 2
b1001111111 B
b1010000000 R
#468
b1010000010 "
b1010000001 2
b1010000001 B
b1010000010 R
#469
b1010000100 "
b1010000011 2
b1010000011 B
b1010000100 R
#470
b1010000110 "
b1010000101 2
b1010000101 B
b1010000110 R
#471
b1010001000 "
b1010000111 2
b1010000111 B
b1010001000 R
#472
b1010001010 "
b1010001001 2
b1010001001 B
b1010001010 R
#473
b1010001100 "
b1010001011 2
b1010001011 B
b1010001100 R
#474
b1010001110 "
b1010001101 2
b1010001101 B
b1010001110 R
#475
b1010010000 "
b1010001111 2
b1010001111 B
b1010010000 R
#476
b1010010010 "
b1010010001 2
b1010010001 B
b1010010010 R
#477
b1010010100 "
b1010010011 2
b1010010011 B
b1010010100 R
#478
b1010010110 "
b1010010101 2
b1010010101 B
b1010010110 R
#479
b1010011000 "
b1010010111 2
b1010010111 B
b1010011000 R
#480
b1010011010 "
b1010011001 2
b1010011001 B
b1010011010 R
#481
b1010011100 "
b1010011011 2
b1010011011 B
b1010011100 R
#482
b1010011110 "
b1010011101 2
b1010011101 B
b1010011110 R
#483
b1010100000 "
b1010011111 2
b1010011111 B
b1010100000 R
#484
b1010100010 "
b1010100001 2
b1010100001 B
b1010100010 R
#485
b1010100100 "
b1010100011 2
b1010100011 B
b1010100100 R
#486
b1010100110 "
b1010100101 2
b1010100101 B
b1010100110 R
#487
b1010101000 "
b1010100111 2
b1010100111 B
b1010101000 R
#488
b1010101010 "
b1010101001 2
b1010101001 B
b1010101010 R
#489
b1010101100 "
b1010101011 2
b1010101011 B
b1010101100 R
#490
b1010101110 "
b1010101101 2
b1010101101 B
b1010101110 R
#491
b1010110000 "
b1010101111 2
b1010101111 B
b1010110000 R
#492
b1010110010 "
b1010110001 2
b1010110001 B
b1010110010 R
#493
b1010110100 "
b1010110011 2
b1010110011 B
b1010110100 R
#494
b1010110110 "
b1010110101 2
b1010110101 B
b1010110110 R
#495
b1010111000 "
b1010110111 2
b1010110111 B
b1010111000 R
#496
b1010111010 "
b1010111001 2
b1010111001 B
b1010111010 R
#497
b1010111100 "
b1010111011 2
b1010111011 B
b1010111100 R
#498
b1010111110 "
b1010111101 2
b1010111101 B
b1010111110 R
#499
b1011000000 "
b1010111111 2
b1010111111 B
b1011000000 R
#500
b1011000010 "
b1011000001 2
b1011000001 B
b1011000010 R
#501
b1011000100 "
b1011000011 2
b1011000011 B
b1011000100 R
#502
b1011000110 "
b1011000101 2
b1011000101 B
b1011000110 R
#503
b1011001000 "
b1011000111 2
b1011000111 B
b1011001000 R
#504
b1011001010 "
b1011001001 2
b1011001001 B
b1011001010 R
#505
b1011001100 "
b1011001011 2
b1011001011 B
b1011001100 R
#506
b1011001110 "
b1011001101 2
b1011001101 B
b1011001110 R
#507
b1011010000 "
b1011001111 2
b1011001111 B
b1011010000 R
#508
b1011010010 "
b1011010001 2
b1011010001 B
b1011010010 R
#509
b1011010100 "
b1011010011 2
b1011010011 B
b1011010100 R
#510
b1011010110 "
b1011010101 2
b1011010101 B
b1011010110 R
#511
b1011011000 "
b1011010111 2
b1011010111 B
b1011011000 R
#512
b1011011010 "
b1011011001 2
b1011011001 B
b1011011010 R
#513
b1011011100 "
b1011011011 2
b1011011011 B
b1011011100 R
#514
b1011011110 "
b1011011101 2
b1011011101 B
b1011011110 R
#515
b1011100000 "
b1011011111 2
b1011011111 B
b1011100000 R
#516
b1011100010 "
b1011100001 2
b1011100001 B
b1011100010 R
#517
b1011100100 "
b1011100011 2
b1011100011 B
b1011100100 R
#518
b1011100110 "
b1011100101 2
b1011100101 B
b1011100110 R
#519
b1011101000 "
b1011100111 2
b1011100111 B
b1011101000 R
#520
b1011101010 "
b1011101001 2
b1011101001 B
b1011101010 R
#521
b1011101100 "
b1011101011 2
b1011101011 B
b1011101100 R
#522
b1011101110 "
b1011101101 2
b1011101101 B
b1011101110 R
#523
b1011110000 "
b1011101111 2
b1011101111 B
b1011110000 R
#524
b1011110010 "
b1011110001 2
b1011110001 B
b1011110010 R
#525
b1011110100 "
b1011110011 2
b1011110011 B
b1011110100 R
#526
b1011110110 "
b1011110101 2
b1011110101 B
b1011110110 R
#527
b1011111000 "
b1011110111 2
b1011110111 B
b1011111000 R
#528
b1011111010 "
b1011111001 2
b1011111001 B
b1011111010 R
#529
b1011111100 "
b1011111011 2
b1011111011 B
b1011111100 R
#530
b1011111110 "
b1011111101 2
b1011111101 B
b1011111110 R
#531
b1100000000 "
b1011111111 2
b1011111111 B
b1100000000 R
#532
b1100000010 "
b1100000001 2
b1100000001 B
b1100000010 R
#533
b1100000100 "
b1100000011 2
b1100000011 B
b1100000100 R
#534
b1100000110 "
b1100000101 2
b1100000101 B
b1100000110 R
#535
b1100001000 "
b1100000111 2
b1100000111 B
b1100001000 R
#536
b1100001010 "
b1100001001 2
b1100001001 B
b1100001010 R
#537
b1100001100 "
b1100001011 2
b1100001011 B
b1100001100 R
#538
b1100001110 "
b1100001101 2
b1100001101 B
b1100001110 R
#539
b1100010000 "
b1100001111 2
b1100001111 B
b1100010000 R
#540
b1100010010 "
b1100010001 2
b1100010001 B
b1100010010 R
#541
b1100010100 "
b1100010011 2
b1100010011 B
b1100010100 R
#542
b1100010110 "
b1100010101 2
b1100010101 B
b1100010110 R
#543
b1100011000 "
b1100010111 2
b1100010111 B
b1100011000 R
#544
b1100011010 "
b1100011001 2
b1100011001 B
b1100011010 R
#545
b1100011100 "
b1100011011 2
b1100011011 B
b1100011100 R
#546
b1100011110 "
b1100011101 2
b1100011101 B
b1100011110 R
#547
b1100100000 "
b1100011111 2
b1100011111 B
b1100100000 R
#548
b1100100010 "
b1100100001 2
b1100100001 B
b1100100010 R
#549
b1100100100 "
b1100100011 2
b1100100011 B
b1100100100 R
#550
b1100100110 "
b1100100101 2
b1100100101 B
b1100100110 R
#551
b1100101000 "
b1100100111 2
b1100100111 B
b1100101000 R
#552
b1100101010 "
b1100101001 2
b1100101001 B
b1100101010 R
#553
b1100101100 "
b1100101011 2
b1100101011 B
b1100101100 R
#554
b1100101110 "
b1100101101 2
b1100101101 B
b1100101110 R
#555
b1100110000 "
b1100101111 2
b1100101111 B
b1100110000 R
#556
b1100110010 "
b1100110001 2
b1100110001 B
b1100110010 R
#557
b1100110100 "
b1100110011 2
b1100110011 B
b1100110100 R
#558
b1100110110 "
b1100110101 2
b1100110101 B
b1100110110 R
#559
b1100111000 "
b1100110111 2
b1100110111 B
b1100111000 R
#560
b1100111010 "
b1100111001 2
b1100111001 B
b1100111010 R
#561
b1100111100 "
b1100111011 2
b1100111011 B
b1100111100 R
#562
b1100111110 "
b1100111101 2
b1100111101 B
b1100111110 R
#563
b1101000000 "
b1100111111 2
b1100111111 B
b1101000000 R
#564
b1101000010 "
b1101000001 2
b1101000001 B
b1101000010 R
#565
b1101000100 "
b1101000011 2
b1101000011 B
b1101000100 R
#566
b1101000110 "
b1101000101 2
b1101000101 B
b1101000110 R
#567
b1101001000 "
b1101000111 2
b1101000111 B
b1101001000 R
#568
b1101001010 "
b1101001001 2
b1101001001 B
b1101001010 R
#569
b1101001100 "
b1101001011 2
b1101001011 B
b1101001100 R
#570
b1101001110 "
b1101001101 2
b1101001101 B
b1101001110 R
#571
b1101010000 "
b1101001111 2
b1101001111 B
b1101010000 R
#572
b1101010010 "
b1101010001 2
b1101010001 B
b1101010010 R
#573
b1101010100 "
b1101010011 2
b1101010011 B
b1101010100 R
#574
b1101010110 "
b1101010101 2
b1101010101 B
b1101010110 R
#575
b1101011000 "
b1101010111 2
b1101010111 B
b1101011000 R
#576
b1101011010 "
b1101011001 2
b1101011001 B
b1101011010 R
#577
b1101011100 "
b1101011011 2
b1101011011 B
b1101011100 R
#578
b1101011110 "
b1101011101 2
b1101011101 B
b1101011110 R
#579
b1101100000 "
b1101011111 2
b1101011111 B
b1101100000 R
#580
b1101100010 "
b1101100001 2
b1101100001 B
b1101100010 R
#581
b1101100100 "
b1101100011 2
b1101100011 B
b1101100100 R
#582
b1101100110 "
b1101100101 2
b1101100101 B
b1101100110 R
#583
b1101101000 "
b1101100111 2
b1101100111 B
b1101101000 R
#584
b1101101010 "
b1101101001 2
b1101101001 B
b1101101010 R
#585
b1101101100 "
b1101101011 2
b1101101011 B
b1101101100 R
#586
b1101101110 "
b1101101101 2
b1101101101 B
b1101101110 R
#587
b1101110000 "
b1101101111 2
b1101101111 B
b1101110000 R
#588
b1101110010 "
b1101110001 2
b1101110001 B
b1101110010 R
#589
b1101110100 "
b1101110011 2
b1101110011 B
b1101110100 R
#590
b1101110110 "
b1101110101 2
b1101110101 B
b1101110110 R
#591
b1101111000 "
b1101110111 2
b1101110111 B
b1101111000 R
#592
b1101111010 "
b1101111001 2
b1101111001 B
b1101111010 R
#593
b1101111100 "
b1101111011 2
b1101111011 B
b1101111100 R
#594
b1101111110 "
b1101111101 2
b1101111101 B
b1101111110 R
#595
b1110000000 "
b1101111111 2
b1101111111 B
b1110000000 R
#596
b1110000010 "
b1110000001 2
b1110000001 B
b1110000010 R
