.Xil/Vivado-26964-else/hw_ila_data_1/zip_work/waveform.vcd
$date
        2024-May-05 19:52:52
$end
$version
        Vivado v2018.3 (64-bit)
$end
$timescale
        1ps
$end
$scope module dut $end
$var reg 128 " u_m_axi_top/m_axi_rdata [127:0] $end
$var reg 128 D" u_m_axi_top/m_axi_wdata [127:0] $end
$var reg 1 f# u_m_axi_top/m_axi_rlast $end
$var reg 1 g# u_m_axi_top/m_axi_wlast $end
$var reg 1 h# _TRIGGER $end
$var reg 1 i# _WINDOW $end
$var reg 1 j# _GAP $end
$upscope $end
$enddefinitions $end
#0
$dumpvars
b0 "
b110111110000000011011110000000001101110100000000110111000000000011011011000000001101101000000000110110010000000011011000 D"
0f#
0g#
0h#
1i#
0j#
$end
#1
b111001110000000011100110000000001110010100000000111001000000000011100011000000001110001000000000111000010000000011100000 D"
#2
b111011110000000011101110000000001110110100000000111011000000000011101011000000001110101000000000111010010000000011101000 D"
#3
b111101110000000011110110000000001111010100000000111101000000000011110011000000001111001000000000111100010000000011110000 D"
#4
b111111110000000011111110000000001111110100000000111111000000000011111011000000001111101000000000111110010000000011111000 D"
#5
b1000001110000000100000110000000010000010100000001000001000000000100000011000000010000001000000001000000010000000100000000 D"
#6
b1000011110000000100001110000000010000110100000001000011000000000100001011000000010000101000000001000010010000000100001000 D"
#7
b1000101110000000100010110000000010001010100000001000101000000000100010011000000010001001000000001000100010000000100010000 D"
#8
b1000111110000000100011110000000010001110100000001000111000000000100011011000000010001101000000001000110010000000100011000 D"
#9
b1001001110000000100100110000000010010010100000001001001000000000100100011000000010010001000000001001000010000000100100000 D"
#10
b1001011110000000100101110000000010010110100000001001011000000000100101011000000010010101000000001001010010000000100101000 D"
#11
b1001101110000000100110110000000010011010100000001001101000000000100110011000000010011001000000001001100010000000100110000 D"
#12
b1001111110000000100111110000000010011110100000001001111000000000100111011000000010011101000000001001110010000000100111000 D"
#13
b1010001110000000101000110000000010100010100000001010001000000000101000011000000010100001000000001010000010000000101000000 D"
#14
b1010011110000000101001110000000010100110100000001010011000000000101001011000000010100101000000001010010010000000101001000 D"
#15
b1010101110000000101010110000000010101010100000001010101000000000101010011000000010101001000000001010100010000000101010000 D"
#16
b1010111110000000101011110000000010101110100000001010111000000000101011011000000010101101000000001010110010000000101011000 D"
#17
b1011001110000000101100110000000010110010100000001011001000000000101100011000000010110001000000001011000010000000101100000 D"
#18
b1011011110000000101101110000000010110110100000001011011000000000101101011000000010110101000000001011010010000000101101000 D"
#19
b1011101110000000101110110000000010111010100000001011101000000000101110011000000010111001000000001011100010000000101110000 D"
#20
b1011111110000000101111110000000010111110100000001011111000000000101111011000000010111101000000001011110010000000101111000 D"
#21
b1100001110000000110000110000000011000010100000001100001000000000110000011000000011000001000000001100000010000000110000000 D"
#22
b1100011110000000110001110000000011000110100000001100011000000000110001011000000011000101000000001100010010000000110001000 D"
#23
b1100101110000000110010110000000011001010100000001100101000000000110010011000000011001001000000001100100010000000110010000 D"
#24
b1100111110000000110011110000000011001110100000001100111000000000110011011000000011001101000000001100110010000000110011000 D"
#25
b1101001110000000110100110000000011010010100000001101001000000000110100011000000011010001000000001101000010000000110100000 D"
#26
b1101011110000000110101110000000011010110100000001101011000000000110101011000000011010101000000001101010010000000110101000 D"
#27
b1101101110000000110110110000000011011010100000001101101000000000110110011000000011011001000000001101100010000000110110000 D"
#28
b1101111110000000110111110000000011011110100000001101111000000000110111011000000011011101000000001101110010000000110111000 D"
#29
b1110001110000000111000110000000011100010100000001110001000000000111000011000000011100001000000001110000010000000111000000 D"
#30
b1110011110000000111001110000000011100110100000001110011000000000111001011000000011100101000000001110010010000000111001000 D"
#31
b1110101110000000111010110000000011101010100000001110101000000000111010011000000011101001000000001110100010000000111010000 D"
#32
b1110111110000000111011110000000011101110100000001110111000000000111011011000000011101101000000001110110010000000111011000 D"
#33
b1111001110000000111100110000000011110010100000001111001000000000111100011000000011110001000000001111000010000000111100000 D"
#34
b1111011110000000111101110000000011110110100000001111011000000000111101011000000011110101000000001111010010000000111101000 D"
#35
b1111101110000000111110110000000011111010100000001111101000000000111110011000000011111001000000001111100010000000111110000 D"
#36
b1111111110000000111111110000000011111110100000001111111000000000111111011000000011111101000000001111110010000000111111000 D"
#37
b10000001110000001000000110000000100000010100000010000001000000001000000011000000100000001000000010000000010000001000000000 D"
#38
b10000011110000001000001110000000100000110100000010000011000000001000001011000000100000101000000010000010010000001000001000 D"
#39
b10000101110000001000010110000000100001010100000010000101000000001000010011000000100001001000000010000100010000001000010000 D"
#40
b10000111110000001000011110000000100001110100000010000111000000001000011011000000100001101000000010000110010000001000011000 D"
#41
b10001001110000001000100110000000100010010100000010001001000000001000100011000000100010001000000010001000010000001000100000 D"
#42
b10001011110000001000101110000000100010110100000010001011000000001000101011000000100010101000000010001010010000001000101000 D"
#43
b10001101110000001000110110000000100011010100000010001101000000001000110011000000100011001000000010001100010000001000110000 D"
#44
b10001111110000001000111110000000100011110100000010001111000000001000111011000000100011101000000010001110010000001000111000 D"
#45
b10010001110000001001000110000000100100010100000010010001000000001001000011000000100100001000000010010000010000001001000000 D"
#46
b10010011110000001001001110000000100100110100000010010011000000001001001011000000100100101000000010010010010000001001001000 D"
#47
b10010101110000001001010110000000100101010100000010010101000000001001010011000000100101001000000010010100010000001001010000 D"
#48
b10010111110000001001011110000000100101110100000010010111000000001001011011000000100101101000000010010110010000001001011000 D"
#49
b10011001110000001001100110000000100110010100000010011001000000001001100011000000100110001000000010011000010000001001100000 D"
#50
b10011011110000001001101110000000100110110100000010011011000000001001101011000000100110101000000010011010010000001001101000 D"
#51
b10011101110000001001110110000000100111010100000010011101000000001001110011000000100111001000000010011100010000001001110000 D"
#52
b10011111110000001001111110000000100111110100000010011111000000001001111011000000100111101000000010011110010000001001111000 D"
#53
b10100001110000001010000110000000101000010100000010100001000000001010000011000000101000001000000010100000010000001010000000 D"
#54
b10100011110000001010001110000000101000110100000010100011000000001010001011000000101000101000000010100010010000001010001000 D"
#55
b10100101110000001010010110000000101001010100000010100101000000001010010011000000101001001000000010100100010000001010010000 D"
#56
b10100111110000001010011110000000101001110100000010100111000000001010011011000000101001101000000010100110010000001010011000 D"
#57
b10101001110000001010100110000000101010010100000010101001000000001010100011000000101010001000000010101000010000001010100000 D"
#58
b10101011110000001010101110000000101010110100000010101011000000001010101011000000101010101000000010101010010000001010101000 D"
#59
b10101101110000001010110110000000101011010100000010101101000000001010110011000000101011001000000010101100010000001010110000 D"
#60
b10101111110000001010111110000000101011110100000010101111000000001010111011000000101011101000000010101110010000001010111000 D"
#61
b10110001110000001011000110000000101100010100000010110001000000001011000011000000101100001000000010110000010000001011000000 D"
#62
b10110011110000001011001110000000101100110100000010110011000000001011001011000000101100101000000010110010010000001011001000 D"
#63
b10110101110000001011010110000000101101010100000010110101000000001011010011000000101101001000000010110100010000001011010000 D"
#64
b10110111110000001011011110000000101101110100000010110111000000001011011011000000101101101000000010110110010000001011011000 D"
#65
b10111001110000001011100110000000101110010100000010111001000000001011100011000000101110001000000010111000010000001011100000 D"
#66
b10111011110000001011101110000000101110110100000010111011000000001011101011000000101110101000000010111010010000001011101000 D"
#67
b10111101110000001011110110000000101111010100000010111101000000001011110011000000101111001000000010111100010000001011110000 D"
#68
b10111111110000001011111110000000101111110100000010111111000000001011111011000000101111101000000010111110010000001011111000 D"
#69
b11000001110000001100000110000000110000010100000011000001000000001100000011000000110000001000000011000000010000001100000000 D"
#70
b11000011110000001100001110000000110000110100000011000011000000001100001011000000110000101000000011000010010000001100001000 D"
#71
b11000101110000001100010110000000110001010100000011000101000000001100010011000000110001001000000011000100010000001100010000 D"
#72
b11000111110000001100011110000000110001110100000011000111000000001100011011000000110001101000000011000110010000001100011000 D"
#73
b11001001110000001100100110000000110010010100000011001001000000001100100011000000110010001000000011001000010000001100100000 D"
#74
b11001011110000001100101110000000110010110100000011001011000000001100101011000000110010101000000011001010010000001100101000 D"
#75
b11001101110000001100110110000000110011010100000011001101000000001100110011000000110011001000000011001100010000001100110000 D"
#76
b11001111110000001100111110000000110011110100000011001111000000001100111011000000110011101000000011001110010000001100111000 D"
#77
b11010001110000001101000110000000110100010100000011010001000000001101000011000000110100001000000011010000010000001101000000 D"
#78
b11010011110000001101001110000000110100110100000011010011000000001101001011000000110100101000000011010010010000001101001000 D"
#79
b11010101110000001101010110000000110101010100000011010101000000001101010011000000110101001000000011010100010000001101010000 D"
#80
b11010111110000001101011110000000110101110100000011010111000000001101011011000000110101101000000011010110010000001101011000 D"
#81
b11011001110000001101100110000000110110010100000011011001000000001101100011000000110110001000000011011000010000001101100000 D"
#82
b11011011110000001101101110000000110110110100000011011011000000001101101011000000110110101000000011011010010000001101101000 D"
#83
b11011101110000001101110110000000110111010100000011011101000000001101110011000000110111001000000011011100010000001101110000 D"
#84
b11011111110000001101111110000000110111110100000011011111000000001101111011000000110111101000000011011110010000001101111000 D"
#85
b11100001110000001110000110000000111000010100000011100001000000001110000011000000111000001000000011100000010000001110000000 D"
#86
b11100011110000001110001110000000111000110100000011100011000000001110001011000000111000101000000011100010010000001110001000 D"
#87
b11100101110000001110010110000000111001010100000011100101000000001110010011000000111001001000000011100100010000001110010000 D"
#88
b11100111110000001110011110000000111001110100000011100111000000001110011011000000111001101000000011100110010000001110011000 D"
#89
b11101001110000001110100110000000111010010100000011101001000000001110100011000000111010001000000011101000010000001110100000 D"
#90
b11101011110000001110101110000000111010110100000011101011000000001110101011000000111010101000000011101010010000001110101000 D"
#91
b11101101110000001110110110000000111011010100000011101101000000001110110011000000111011001000000011101100010000001110110000 D"
#92
b11101111110000001110111110000000111011110100000011101111000000001110111011000000111011101000000011101110010000001110111000 D"
#93
b11110001110000001111000110000000111100010100000011110001000000001111000011000000111100001000000011110000010000001111000000 D"
#94
b11110011110000001111001110000000111100110100000011110011000000001111001011000000111100101000000011110010010000001111001000 D"
#95
b11110101110000001111010110000000111101010100000011110101000000001111010011000000111101001000000011110100010000001111010000 D"
#96
b11110111110000001111011110000000111101110100000011110111000000001111011011000000111101101000000011110110010000001111011000 D"
#97
b11111001110000001111100110000000111110010100000011111001000000001111100011000000111110001000000011111000010000001111100000 D"
#98
b11111011110000001111101110000000111110110100000011111011000000001111101011000000111110101000000011111010010000001111101000 D"
#99
b11111101110000001111110110000000111111010100000011111101000000001111110011000000111111001000000011111100010000001111110000 D"
#100
b11111111110000001111111110000000111111110100000011111111000000001111111011000000111111101000000011111110010000001111111000 D"
1g#
1h#
#101
0g#
#1020
b10000000000001000000000000000011100000000000001100000000000000101000000000000010000000000000000110000000000000010 "
#1022
b10010000000000010000000000000000111100000000000011100000000000001101000000000000110000000000000010110000000000001010 "
#1024
b100010000000000011000000000000001011100000000000101100000000000010101000000000001010000000000000100110000000000010010 "
#1026
b110010000000000100000000000000001111100000000000111100000000000011101000000000001110000000000000110110000000000011010 "
#1028
b1000010000000000101000000000000010011100000000001001100000000000100101000000000010010000000000001000110000000000100010 "
#1030
b1010010000000000110000000000000010111100000000001011100000000000101101000000000010110000000000001010110000000000101010 "
#1032
b1100010000000000111000000000000011011100000000001101100000000000110101000000000011010000000000001100110000000000110010 "
#1034
b1110010000000001000000000000000011111100000000001111100000000000111101000000000011110000000000001110110000000000111010 "
#1036
b10000010000000001001000000000000100011100000000010001100000000001000101000000000100010000000000010000110000000001000010 "
#1038
b10010010000000001010000000000000100111100000000010011100000000001001101000000000100110000000000010010110000000001001010 "
#1040
b10100010000000001011000000000000101011100000000010101100000000001010101000000000101010000000000010100110000000001010010 "
#1042
b10110010000000001100000000000000101111100000000010111100000000001011101000000000101110000000000010110110000000001011010 "
#1044
b11000010000000001101000000000000110011100000000011001100000000001100101000000000110010000000000011000110000000001100010 "
#1046
b11010010000000001110000000000000110111100000000011011100000000001101101000000000110110000000000011010110000000001101010 "
#1048
b11100010000000001111000000000000111011100000000011101100000000001110101000000000111010000000000011100110000000001110010 "
#1050
b11110010000000010000000000000000111111100000000011111100000000001111101000000000111110000000000011110110000000001111010 "
#1052
b100000010000000010001000000000001000011100000000100001100000000010000101000000001000010000000000100000110000000010000010 "
#1054
b100010010000000010010000000000001000111100000000100011100000000010001101000000001000110000000000100010110000000010001010 "
#1056
b100100010000000010011000000000001001011100000000100101100000000010010101000000001001010000000000100100110000000010010010 "
#1058
b100110010000000010100000000000001001111100000000100111100000000010011101000000001001110000000000100110110000000010011010 "
#1060
b101000010000000010101000000000001010011100000000101001100000000010100101000000001010010000000000101000110000000010100010 "
#1062
b101010010000000010110000000000001010111100000000101011100000000010101101000000001010110000000000101010110000000010101010 "
#1064
b101100010000000010111000000000001011011100000000101101100000000010110101000000001011010000000000101100110000000010110010 "
#1066
b101110010000000011000000000000001011111100000000101111100000000010111101000000001011110000000000101110110000000010111010 "
#1068
b110000010000000011001000000000001100011100000000110001100000000011000101000000001100010000000000110000110000000011000010 "
#1070
b110010010000000011010000000000001100111100000000110011100000000011001101000000001100110000000000110010110000000011001010 "
#1072
b110100010000000011011000000000001101011100000000110101100000000011010101000000001101010000000000110100110000000011010010 "
#1074
b110110010000000011100000000000001101111100000000110111100000000011011101000000001101110000000000110110110000000011011010 "
#1076
b111000010000000011101000000000001110011100000000111001100000000011100101000000001110010000000000111000110000000011100010 "
#1078
b111010010000000011110000000000001110111100000000111011100000000011101101000000001110110000000000111010110000000011101010 "
#1080
b111100010000000011111000000000001111011100000000111101100000000011110101000000001111010000000000111100110000000011110010 "
#1082
b111110010000000100000000000000001111111100000000111111100000000011111101000000001111110000000000111110110000000011111010 "
#1084
b1000000010000000100001000000000010000011100000001000001100000000100000101000000010000010000000001000000110000000100000010 "
#1086
b1000010010000000100010000000000010000111100000001000011100000000100001101000000010000110000000001000010110000000100001010 "
#1088
b1000100010000000100011000000000010001011100000001000101100000000100010101000000010001010000000001000100110000000100010010 "
#1090
b1000110010000000100100000000000010001111100000001000111100000000100011101000000010001110000000001000110110000000100011010 "
#1092
b1001000010000000100101000000000010010011100000001001001100000000100100101000000010010010000000001001000110000000100100010 "
#1094
b1001010010000000100110000000000010010111100000001001011100000000100101101000000010010110000000001001010110000000100101010 "
#1096
b1001100010000000100111000000000010011011100000001001101100000000100110101000000010011010000000001001100110000000100110010 "
#1098
b1001110010000000101000000000000010011111100000001001111100000000100111101000000010011110000000001001110110000000100111010 "
#1100
b1010000010000000101001000000000010100011100000001010001100000000101000101000000010100010000000001010000110000000101000010 "
#1102
b1010010010000000101010000000000010100111100000001010011100000000101001101000000010100110000000001010010110000000101001010 "
#1104
b1010100010000000101011000000000010101011100000001010101100000000101010101000000010101010000000001010100110000000101010010 "
#1106
b1010110010000000101100000000000010101111100000001010111100000000101011101000000010101110000000001010110110000000101011010 "
#1108
b1011000010000000101101000000000010110011100000001011001100000000101100101000000010110010000000001011000110000000101100010 "
#1110
b1011010010000000101110000000000010110111100000001011011100000000101101101000000010110110000000001011010110000000101101010 "
#1112
b1011100010000000101111000000000010111011100000001011101100000000101110101000000010111010000000001011100110000000101110010 "
#1114
b1011110010000000110000000000000010111111100000001011111100000000101111101000000010111110000000001011110110000000101111010 "
#1116
b1100000010000000110001000000000011000011100000001100001100000000110000101000000011000010000000001100000110000000110000010 "
#1118
b1100010010000000110010000000000011000111100000001100011100000000110001101000000011000110000000001100010110000000110001010 "
#1120
b1100100010000000110011000000000011001011100000001100101100000000110010101000000011001010000000001100100110000000110010010 "
#1122
b1100110010000000110100000000000011001111100000001100111100000000110011101000000011001110000000001100110110000000110011010 "
#1124
b1101000010000000110101000000000011010011100000001101001100000000110100101000000011010010000000001101000110000000110100010 "
#1126
b1101010010000000110110000000000011010111100000001101011100000000110101101000000011010110000000001101010110000000110101010 "
#1128
b1101100010000000110111000000000011011011100000001101101100000000110110101000000011011010000000001101100110000000110110010 "
#1130
b1101110010000000111000000000000011011111100000001101111100000000110111101000000011011110000000001101110110000000110111010 "
#1132
b1110000010000000111001000000000011100011100000001110001100000000111000101000000011100010000000001110000110000000111000010 "
#1134
b1110010010000000111010000000000011100111100000001110011100000000111001101000000011100110000000001110010110000000111001010 "
#1136
b1110100010000000111011000000000011101011100000001110101100000000111010101000000011101010000000001110100110000000111010010 "
#1138
b1110110010000000111100000000000011101111100000001110111100000000111011101000000011101110000000001110110110000000111011010 "
#1140
b1111000010000000111101000000000011110011100000001111001100000000111100101000000011110010000000001111000110000000111100010 "
#1142
b1111010010000000111110000000000011110111100000001111011100000000111101101000000011110110000000001111010110000000111101010 "
#1144
b1111100010000000111111000000000011111011100000001111101100000000111110101000000011111010000000001111100110000000111110010 "
#1146
b10111110010000001000000000000000011111111100000001111111100000000111111101000000011111110000000001111110110000000111111010 "
#1148
b10000000010000001000001000000000100000011100000010000001100000001000000101000000100000010000000010000000110000001000000010 "
#1150
b10000010010000001000010000000000100000111100000010000011100000001000001101000000100000110000000010000010110000001000001010 "
#1152
b10000100010000001000011000000000100001011100000010000101100000001000010101000000100001010000000010000100110000001000010010 "
#1154
b10000110010000001000100000000000100001111100000010000111100000001000011101000000100001110000000010000110110000001000011010 "
#1156
b10001000010000001000101000000000100010011100000010001001100000001000100101000000100010010000000010001000110000001000100010 "
#1158
b10001010010000001000110000000000100010111100000010001011100000001000101101000000100010110000000010001010110000001000101010 "
#1160
b10001100010000001000111000000000100011011100000010001101100000001000110101000000100011010000000010001100110000001000110010 "
#1162
b10001110010000001001000000000000100011111100000010001111100000001000111101000000100011110000000010001110110000001000111010 "
#1164
b10010000010000001001001000000000100100011100000010010001100000001001000101000000100100010000000010010000110000001001000010 "
#1166
b10010010010000001001010000000000100100111100000010010011100000001001001101000000100100110000000010010010110000001001001010 "
#1168
b10010100010000001001011000000000100101011100000010010101100000001001010101000000100101010000000010010100110000001001010010 "
#1170
b10010110010000001001100000000000100101111100000010010111100000001001011101000000100101110000000010010110110000001001011010 "
#1172
b10011000010000001001101000000000100110011100000010011001100000001001100101000000100110010000000010011000110000001001100010 "
#1174
b10011010010000001001110000000000100110111100000010011011100000001001101101000000100110110000000010011010110000001001101010 "
#1176
b10011100010000001001111000000000100111011100000010011101100000001001110101000000100111010000000010011100110000001001110010 "
#1178
b10011110010000001001111110000000100111111100000010011111100000001001111101000000100111110000000010011110110000001001111010 "
#1204
b10100000010000001010001000000000101000011100000010100001100000001010000101000000101000010000000010100000110000001010000010 "
#1206
b10100010010000001010010000000000101000111100000010100011100000001010001101000000101000110000000010100010110000001010001010 "
#1208
b10100100010000001010011000000000101001011100000010100101100000001010010101000000101001010000000010100100110000001010010010 "
#1210
b10100110010000001010100000000000101001111100000010100111100000001010011101000000101001110000000010100110110000001010011010 "
#1212
b10101000010000001010101000000000101010011100000010101001100000001010100101000000101010010000000010101000110000001010100010 "
#1214
b10101010010000001010110000000000101010111100000010101011100000001010101101000000101010110000000010101010110000001010101010 "
#1216
b10101100010000001010111000000000101011011100000010101101100000001010110101000000101011010000000010101100110000001010110010 "
#1218
b10101110010000001011000000000000101011111100000010101111100000001010111101000000101011110000000010101110110000001010111010 "
#1220
b10110000010000001011001000000000101100011100000010110001100000001011000101000000101100010000000010110000110000001011000010 "
#1222
b10110010010000001011010000000000101100111100000010110011100000001011001101000000101100110000000010110010110000001011001010 "
#1224
b10110100010000001011011000000000101101011100000010110101100000001011010101000000101101010000000010110100110000001011010010 "
#1226
b10110110010000001011100000000000101101111100000010110111100000001011011101000000101101110000000010110110110000001011011010 "
#1228
b10111000010000001011101000000000101110011100000010111001100000001011100101000000101110010000000010111000110000001011100010 "
#1230
b10111010010000001011110000000000101110111100000010111011100000001011101101000000101110110000000010111010110000001011101010 "
#1232
b10111100010000001011111000000000101111011100000010111101100000001011110101000000101111010000000010111100110000001011110010 "
#1234
b11111110010000001100000000000000101111111100000010111111100000001011111101000000101111110000000010111110110000001011111010 "
#1236
b11000000010000001100001000000000110000011100000011000001100000001100000101000000110000010000000011000000110000001100000010 "
#1238
b11000010010000001100010000000000110000111100000011000011100000001100001101000000110000110000000011000010110000001100001010 "
#1240
b11000100010000001100011000000000110001011100000011000101100000001100010101000000110001010000000011000100110000001100010010 "
#1242
b11000110010000001100100000000000110001111100000011000111100000001100011101000000110001110000000011000110110000001100011010 "
#1244
b11001000010000001100101000000000110010011100000011001001100000001100100101000000110010010000000011001000110000001100100010 "
#1246
b11001010010000001100110000000000110010111100000011001011100000001100101101000000110010110000000011001010110000001100101010 "
#1248
b11001100010000001100111000000000110011011100000011001101100000001100110101000000110011010000000011001100110000001100110010 "
#1250
b11001110010000001101000000000000110011111100000011001111100000001100111101000000110011110000000011001110110000001100111010 "
#1252
b11010000010000001101001000000000110100011100000011010001100000001101000101000000110100010000000011010000110000001101000010 "
#1254
b11010010010000001101010000000000110100111100000011010011100000001101001101000000110100110000000011010010110000001101001010 "
#1256
b11010100010000001101011000000000110101011100000011010101100000001101010101000000110101010000000011010100110000001101010010 "
#1258
b11010110010000001101100000000000110101111100000011010111100000001101011101000000110101110000000011010110110000001101011010 "
#1260
b11011000010000001101101000000000110110011100000011011001100000001101100101000000110110010000000011011000110000001101100010 "
#1262
b11011010010000001101110000000000110110111100000011011011100000001101101101000000110110110000000011011010110000001101101010 "
#1264
b11011100010000001101111000000000110111011100000011011101100000001101110101000000110111010000000011011100110000001101110010 "
#1266
b11011110010000001110000000000000110111111100000011011111100000001101111101000000110111110000000011011110110000001101111010 "
#1268
b11100000010000001110001000000000111000011100000011100001100000001110000101000000111000010000000011100000110000001110000010 "
#1270
b11100010010000001110010000000000111000111100000011100011100000001110001101000000111000110000000011100010110000001110001010 "
#1272
b11100100010000001110011000000000111001011100000011100101100000001110010101000000111001010000000011100100110000001110010010 "
#1274
b11100110010000001110100000000000111001111100000011100111100000001110011101000000111001110000000011100110110000001110011010 "
#1276
b11101000010000001110101000000000111010011100000011101001100000001110100101000000111010010000000011101000110000001110100010 "
#1278
b11101010010000001110110000000000111010111100000011101011100000001110101101000000111010110000000011101010110000001110101010 "
#1280
b11101100010000001110111000000000111011011100000011101101100000001110110101000000111011010000000011101100110000001110110010 "
#1282
b11101110010000001111000000000000111011111100000011101111100000001110111101000000111011110000000011101110110000001110111010 "
#1284
b11110000010000001111001000000000111100011100000011110001100000001111000101000000111100010000000011110000110000001111000010 "
#1286
b11110010010000001111010000000000111100111100000011110011100000001111001101000000111100110000000011110010110000001111001010 "
#1288
b11110100010000001111011000000000111101011100000011110101100000001111010101000000111101010000000011110100110000001111010010 "
#1290
b11110110010000001111100000000000111101111100000011110111100000001111011101000000111101110000000011110110110000001111011010 "
#1292
b11111000010000001111101000000000111110011100000011111001100000001111100101000000111110010000000011111000110000001111100010 "
#1294
b11111010010000001111110000000000111110111100000011111011100000001111101101000000111110110000000011111010110000001111101010 "
#1296
b11111100010000001111111000000000111111011100000011111101100000001111110101000000111111010000000011111100110000001111110010 "
#1298
b111110010000001111111110000000111111111100000011111111100000001111111101000000111111110000000011111110110000001111111010 "
1f#
#1299
0f#
